ContadorMod525/simulation/qsim/ContadorMod525.msim.vcd
$comment
	File created using the following command:
		vcd file ContadorMod525.msim.vcd -direction
$end
$date
	Fri Mar 12 03:30:54 2021
$end
$version
	ModelSim Version 10.5b
$end
$timescale
	1ps
$end

$scope module contadormod525_vhd_vec_tst $end
$var wire 1 ! CLK $end
$var wire 1 " Cout $end
$var wire 1 # CUENTA [9] $end
$var wire 1 $ CUENTA [8] $end
$var wire 1 % CUENTA [7] $end
$var wire 1 & CUENTA [6] $end
$var wire 1 ' CUENTA [5] $end
$var wire 1 ( CUENTA [4] $end
$var wire 1 ) CUENTA [3] $end
$var wire 1 * CUENTA [2] $end
$var wire 1 + CUENTA [1] $end
$var wire 1 , CUENTA [0] $end
$var wire 1 - ENABLE $end
$var wire 1 . RST $end

$scope module i1 $end
$var wire 1 / gnd $end
$var wire 1 0 vcc $end
$var wire 1 1 unknown $end
$var wire 1 2 devoe $end
$var wire 1 3 devclrn $end
$var wire 1 4 devpor $end
$var wire 1 5 ww_devoe $end
$var wire 1 6 ww_devclrn $end
$var wire 1 7 ww_devpor $end
$var wire 1 8 ww_CLK $end
$var wire 1 9 ww_RST $end
$var wire 1 : ww_ENABLE $end
$var wire 1 ; ww_CUENTA [9] $end
$var wire 1 < ww_CUENTA [8] $end
$var wire 1 = ww_CUENTA [7] $end
$var wire 1 > ww_CUENTA [6] $end
$var wire 1 ? ww_CUENTA [5] $end
$var wire 1 @ ww_CUENTA [4] $end
$var wire 1 A ww_CUENTA [3] $end
$var wire 1 B ww_CUENTA [2] $end
$var wire 1 C ww_CUENTA [1] $end
$var wire 1 D ww_CUENTA [0] $end
$var wire 1 E ww_Cout $end
$var wire 1 F \~QUARTUS_CREATED_ADC1~_CHSEL_bus\ [4] $end
$var wire 1 G \~QUARTUS_CREATED_ADC1~_CHSEL_bus\ [3] $end
$var wire 1 H \~QUARTUS_CREATED_ADC1~_CHSEL_bus\ [2] $end
$var wire 1 I \~QUARTUS_CREATED_ADC1~_CHSEL_bus\ [1] $end
$var wire 1 J \~QUARTUS_CREATED_ADC1~_CHSEL_bus\ [0] $end
$var wire 1 K \~QUARTUS_CREATED_ADC2~_CHSEL_bus\ [4] $end
$var wire 1 L \~QUARTUS_CREATED_ADC2~_CHSEL_bus\ [3] $end
$var wire 1 M \~QUARTUS_CREATED_ADC2~_CHSEL_bus\ [2] $end
$var wire 1 N \~QUARTUS_CREATED_ADC2~_CHSEL_bus\ [1] $end
$var wire 1 O \~QUARTUS_CREATED_ADC2~_CHSEL_bus\ [0] $end
$var wire 1 P \CLK~inputclkctrl_INCLK_bus\ [3] $end
$var wire 1 Q \CLK~inputclkctrl_INCLK_bus\ [2] $end
$var wire 1 R \CLK~inputclkctrl_INCLK_bus\ [1] $end
$var wire 1 S \CLK~inputclkctrl_INCLK_bus\ [0] $end
$var wire 1 T \~QUARTUS_CREATED_GND~I_combout\ $end
$var wire 1 U \~QUARTUS_CREATED_UNVM~~busy\ $end
$var wire 1 V \~QUARTUS_CREATED_ADC1~~eoc\ $end
$var wire 1 W \~QUARTUS_CREATED_ADC2~~eoc\ $end
$var wire 1 X \CUENTA[0]~output_o\ $end
$var wire 1 Y \CUENTA[1]~output_o\ $end
$var wire 1 Z \CUENTA[2]~output_o\ $end
$var wire 1 [ \CUENTA[3]~output_o\ $end
$var wire 1 \ \CUENTA[4]~output_o\ $end
$var wire 1 ] \CUENTA[5]~output_o\ $end
$var wire 1 ^ \CUENTA[6]~output_o\ $end
$var wire 1 _ \CUENTA[7]~output_o\ $end
$var wire 1 ` \CUENTA[8]~output_o\ $end
$var wire 1 a \CUENTA[9]~output_o\ $end
$var wire 1 b \Cout~output_o\ $end
$var wire 1 c \CLK~input_o\ $end
$var wire 1 d \CLK~inputclkctrl_outclk\ $end
$var wire 1 e \ENABLE~input_o\ $end
$var wire 1 f \Q[0]~0_combout\ $end
$var wire 1 g \RST~input_o\ $end
$var wire 1 h \Q[1]~5_combout\ $end
$var wire 1 i \Q[2]~6_combout\ $end
$var wire 1 j \Q[3]~7_combout\ $end
$var wire 1 k \Q[3]~8_combout\ $end
$var wire 1 l \Q[9]~1_combout\ $end
$var wire 1 m \Q[4]~9_combout\ $end
$var wire 1 n \Q[5]~10_combout\ $end
$var wire 1 o \Q[5]~11_combout\ $end
$var wire 1 p \Q[6]~12_combout\ $end
$var wire 1 q \Q[7]~13_combout\ $end
$var wire 1 r \I0|I7|Co~0_combout\ $end
$var wire 1 s \I0|I7|Co~1_combout\ $end
$var wire 1 t \Q[8]~14_combout\ $end
$var wire 1 u \Q[9]~15_combout\ $end
$var wire 1 v \Q[9]~16_combout\ $end
$var wire 1 w \Q[9]~2_combout\ $end
$var wire 1 x \Q[9]~3_combout\ $end
$var wire 1 y \Q[9]~4_combout\ $end
$var wire 1 z \I0|I9|Co~0_combout\ $end
$var wire 1 { Q [9] $end
$var wire 1 | Q [8] $end
$var wire 1 } Q [7] $end
$var wire 1 ~ Q [6] $end
$var wire 1 !! Q [5] $end
$var wire 1 "! Q [4] $end
$var wire 1 #! Q [3] $end
$var wire 1 $! Q [2] $end
$var wire 1 %! Q [1] $end
$var wire 1 &! Q [0] $end
$var wire 1 '! \ALT_INV_Q[9]~4_combout\ $end
$upscope $end
$upscope $end
$enddefinitions $end
#0
$dumpvars
0!
0"
0-
0.
0/
10
x1
12
13
14
15
16
17
08
09
0:
0E
0T
zU
zV
zW
0X
0Y
0Z
0[
0\
0]
0^
0_
0`
0a
0b
0c
0d
0e
0f
0g
0h
0i
0j
0k
0l
0m
0n
0o
0p
0q
0r
0s
0t
1u
0v
0w
1x
1y
0z
0'!
0#
0$
0%
0&
0'
0(
0)
0*
0+
0,
0;
0<
0=
0>
0?
0@
0A
0B
0C
0D
0{
0|
0}
0~
0!!
0"!
0#!
0$!
0%!
0&!
1P
1Q
1R
0S
0F
0G
0H
0I
0J
0K
0L
0M
0N
0O
$end
#5000
1!
18
1c
1S
1d
#10000
0!
08
0c
0S
0d
#15000
1!
18
1c
1S
1d
#20000
0!
08
0c
0S
0d
#25000
1!
18
1c
1S
1d
#30000
0!
08
0c
0S
0d
#35000
1!
18
1c
1S
1d
#40000
0!
08
0c
0S
0d
#45000
1!
18
1c
1S
1d
#50000
0!
08
0c
0S
0d
#55000
1!
18
1c
1S
1d
#60000
0!
08
0c
0S
0d
#65000
1!
18
1c
1S
1d
#70000
0!
08
0c
0S
0d
#75000
1!
18
1c
1S
1d
#80000
0!
08
0c
0S
0d
#85000
1!
18
1c
1S
1d
#90000
0!
08
0c
0S
0d
#95000
1!
18
1c
1S
1d
#100000
0!
08
0c
0S
0d
#105000
1!
18
1c
1S
1d
#110000
0!
08
0c
0S
0d
#115000
1!
18
1c
1S
1d
#120000
0!
08
0c
0S
0d
#125000
1!
18
1c
1S
1d
#130000
0!
08
0c
0S
0d
#135000
1!
18
1c
1S
1d
#140000
0!
08
0c
0S
0d
#145000
1!
18
1c
1S
1d
#150000
0!
08
0c
0S
0d
#155000
1!
18
1c
1S
1d
#160000
0!
1.
08
19
1g
0c
0S
0y
1'!
0d
#165000
1!
18
1c
1S
1d
#170000
0!
08
0c
0S
0d
#175000
1!
18
1c
1S
1d
#180000
0!
08
0c
0S
0d
#185000
1!
18
1c
1S
1d
#190000
0!
08
0c
0S
0d
#195000
1!
18
1c
1S
1d
#200000
0!
08
0c
0S
0d
#205000
1!
18
1c
1S
1d
#210000
0!
08
0c
0S
0d
#215000
1!
18
1c
1S
1d
#220000
0!
08
0c
0S
0d
#225000
1!
18
1c
1S
1d
#230000
0!
08
0c
0S
0d
#235000
1!
18
1c
1S
1d
#240000
0!
1-
08
1:
1e
0c
0S
1f
0d
#245000
1!
18
1c
1S
1d
1&!
1X
0f
1h
1D
1,
#250000
0!
08
0c
0S
0d
#255000
1!
18
1c
1S
1d
1%!
0&!
0X
1Y
1f
0x
0D
1C
0,
1+
#260000
0!
08
0c
0S
0d
#265000
1!
18
1c
1S
1d
1&!
1X
0f
0h
1i
1D
1,
#270000
0!
08
0c
0S
0d
#275000
1!
18
1c
1S
1d
0%!
1$!
0&!
0X
1Z
0Y
1f
1x
0D
1B
0C
0,
0+
1*
#280000
0!
08
0c
0S
0d
#285000
1!
18
1c
1S
1d
1&!
1X
0f
1h
1D
1,
#290000
0!
08
0c
0S
0d
#295000
1!
18
1c
1S
1d
1%!
0&!
0X
1Y
1f
0x
0D
1C
0,
1+
#300000
0!
08
0c
0S
0d
#305000
1!
18
1c
1S
1d
1&!
1X
0f
0h
0i
1j
1D
1k
1,
#310000
0!
08
0c
0S
0d
#315000
1!
18
1c
1S
1d
0%!
0$!
1#!
0&!
0X
1[
0Z
0Y
1f
0k
0j
1x
0D
1A
0B
0C
1k
0,
0+
0*
1)
#320000
0!
08
0c
0S
0d
#325000
1!
18
1c
1S
1d
1&!
1X
0f
1h
1D
1,
#330000
0!
08
0c
0S
0d
#335000
1!
18
1c
1S
1d
1%!
0&!
0X
1Y
1f
0x
0D
1C
0,
1+
#340000
0!
08
0c
0S
0d
#345000
1!
18
1c
1S
1d
1&!
1X
0f
0h
1i
1D
1,
#350000
0!
08
0c
0S
0d
#355000
1!
18
1c
1S
1d
0%!
1$!
0&!
0X
1Z
0Y
1f
1x
0D
1B
0C
0,
0+
1*
#360000
0!
08
0c
0S
0d
#365000
1!
18
1c
1S
1d
1&!
1X
0f
1h
1l
1D
1,
#370000
0!
08
0c
0S
0d
#375000
1!
18
1c
1S
1d
1%!
0&!
0X
1Y
1f
0l
1m
0x
0D
1C
0m
0,
1+
#380000
0!
08
0c
0S
0d
#385000
1!
18
1c
1S
1d
1&!
1X
0f
0h
0i
1j
1l
1D
1m
0k
1,
#390000
0!
08
0c
0S
0d
#395000
1!
18
1c
1S
1d
0%!
0$!
0#!
1"!
0&!
0X
1\
0[
0Z
0Y
1f
1k
0l
0j
0D
1@
0A
0B
0C
0k
0,
0+
0*
0)
1(
#400000
0!
08
0c
0S
0d
#405000
1!
18
1c
1S
1d
1&!
1X
0f
1h
1D
1,
#410000
0!
08
0c
0S
0d
#415000
1!
18
1c
1S
1d
1%!
0&!
0X
1Y
1f
0D
1C
0,
1+
#420000
0!
08
0c
0S
0d
#425000
1!
18
1c
1S
1d
1&!
1X
0f
0h
1i
1D
1,
#430000
0!
08
0c
0S
0d
#435000
1!
18
1c
1S
1d
0%!
1$!
0&!
0X
1Z
0Y
1f
0D
1B
0C
0,
0+
1*
#440000
0!
08
0c
0S
0d
#445000
1!
18
1c
1S
1d
1&!
1X
0f
1h
1D
1,
#450000
0!
08
0c
0S
0d
#455000
1!
18
1c
1S
1d
1%!
0&!
0X
1Y
1f
0D
1C
0,
1+
#460000
0!
08
0c
0S
0d
#465000
1!
18
1c
1S
1d
1&!
1X
0f
0h
0i
1j
1D
1k
1,
#470000
0!
08
0c
0S
0d
#475000
1!
18
1c
1S
1d
0%!
0$!
1#!
0&!
0X
1[
0Z
0Y
1f
0k
0j
0D
1A
0B
0C
1k
0,
0+
0*
1)
#480000
0!
08
0c
0S
0d
#485000
1!
18
1c
1S
1d
1&!
1X
0f
1h
1D
1,
#490000
0!
08
0c
0S
0d
#495000
1!
18
1c
1S
1d
1%!
0&!
0X
1Y
1f
0D
1C
0,
1+
#500000
0!
08
0c
0S
0d
#505000
1!
18
1c
1S
1d
1&!
1X
0f
0h
1i
1D
1,
#510000
0!
08
0c
0S
0d
#515000
1!
18
1c
1S
1d
0%!
1$!
0&!
0X
1Z
0Y
1f
0D
1B
0C
0,
0+
1*
#520000
0!
08
0c
0S
0d
#525000
1!
18
1c
1S
1d
1&!
1X
0f
1h
1l
1D
1,
#530000
0!
08
0c
0S
0d
#535000
1!
18
1c
1S
1d
1%!
0&!
0X
1Y
1f
0l
0m
1n
1o
1s
0D
1C
1m
0n
0o
0,
1+
#540000
0!
08
0c
0S
0d
#545000
1!
18
1c
1S
1d
1&!
1X
0f
0h
0i
1j
1l
1D
0m
1n
1o
0k
1,
#550000
0!
08
0c
0S
0d
#555000
1!
18
1c
1S
1d
0%!
0$!
0#!
0"!
1!!
0&!
0X
1]
0\
0[
0Z
0Y
1f
1p
1k
0l
0j
0o
0s
0D
1?
0@
0A
0B
0C
0p
0k
0,
0+
0*
0)
0(
1'
#560000
0!
08
0c
0S
0d
#565000
1!
18
1c
1S
1d
1&!
1X
0f
1h
1D
1,
#570000
0!
08
0c
0S
0d
#575000
1!
18
1c
1S
1d
1%!
0&!
0X
1Y
1f
0D
1C
0,
1+
#580000
0!
08
0c
0S
0d
#585000
1!
18
1c
1S
1d
1&!
1X
0f
0h
1i
1D
1,
#590000
0!
08
0c
0S
0d
#595000
1!
18
1c
1S
1d
0%!
1$!
0&!
0X
1Z
0Y
1f
0D
1B
0C
0,
0+
1*
#600000
0!
08
0c
0S
0d
#605000
1!
18
1c
1S
1d
1&!
1X
0f
1h
1D
1,
#610000
0!
08
0c
0S
0d
#615000
1!
18
1c
1S
1d
1%!
0&!
0X
1Y
1f
0D
1C
0,
1+
#620000
0!
08
0c
0S
0d
#625000
1!
18
1c
1S
1d
1&!
1X
0f
0h
0i
1j
1D
1k
1,
#630000
0!
08
0c
0S
0d
#635000
1!
18
1c
1S
1d
0%!
0$!
1#!
0&!
0X
1[
0Z
0Y
1f
0k
0j
0D
1A
0B
0C
1k
0,
0+
0*
1)
#640000
0!
08
0c
0S
0d
#645000
1!
18
1c
1S
1d
1&!
1X
0f
1h
1D
1,
#650000
0!
08
0c
0S
0d
#655000
1!
18
1c
1S
1d
1%!
0&!
0X
1Y
1f
0D
1C
0,
1+
#660000
0!
08
0c
0S
0d
#665000
1!
18
1c
1S
1d
1&!
1X
0f
0h
1i
1D
1,
#670000
0!
08
0c
0S
0d
#675000
1!
18
1c
1S
1d
0%!
1$!
0&!
0X
1Z
0Y
1f
0D
1B
0C
0,
0+
1*
#680000
0!
08
0c
0S
0d
#685000
1!
18
1c
1S
1d
1&!
1X
0f
1h
1l
1D
1,
#690000
0!
08
0c
0S
0d
#695000
1!
18
1c
1S
1d
1%!
0&!
0X
1Y
1f
0l
1m
0D
1C
0m
0,
1+
#700000
0!
08
0c
0S
0d
#705000
1!
18
1c
1S
1d
1&!
1X
0f
0h
0i
1j
1l
1D
1m
0k
1,
#710000
0!
08
0c
0S
0d
#715000
1!
18
1c
1S
1d
0%!
0$!
0#!
1"!
0&!
0X
1\
0[
0Z
0Y
1f
1k
0l
0j
0D
1@
0A
0B
0C
0k
0,
0+
0*
0)
1(
#720000
0!
08
0c
0S
0d
#725000
1!
18
1c
1S
1d
1&!
1X
0f
1h
1D
1,
#730000
0!
08
0c
0S
0d
#735000
1!
18
1c
1S
1d
1%!
0&!
0X
1Y
1f
0D
1C
0,
1+
#740000
0!
08
0c
0S
0d
#745000
1!
18
1c
1S
1d
1&!
1X
0f
0h
1i
1D
1,
#750000
0!
08
0c
0S
0d
#755000
1!
18
1c
1S
1d
0%!
1$!
0&!
0X
1Z
0Y
1f
0D
1B
0C
0,
0+
1*
#760000
0!
08
0c
0S
0d
#765000
1!
18
1c
1S
1d
1&!
1X
0f
1h
1D
1,
#770000
0!
08
0c
0S
0d
#775000
1!
18
1c
1S
1d
1%!
0&!
0X
1Y
1f
0D
1C
0,
1+
#780000
0!
08
0c
0S
0d
#785000
1!
18
1c
1S
1d
1&!
1X
0f
0h
0i
1j
1D
1k
1,
#790000
0!
08
0c
0S
0d
#795000
1!
18
1c
1S
1d
0%!
0$!
1#!
0&!
0X
1[
0Z
0Y
1f
0k
0j
0D
1A
0B
0C
1k
0,
0+
0*
1)
#800000
0!
08
0c
0S
0d
#805000
1!
18
1c
1S
1d
1&!
1X
0f
1h
1D
1,
#810000
0!
08
0c
0S
0d
#815000
1!
18
1c
1S
1d
1%!
0&!
0X
1Y
1f
0D
1C
0,
1+
#820000
0!
08
0c
0S
0d
#825000
1!
18
1c
1S
1d
1&!
1X
0f
0h
1i
1D
1,
#830000
0!
08
0c
0S
0d
#835000
1!
18
1c
1S
1d
0%!
1$!
0&!
0X
1Z
0Y
1f
0D
1B
0C
0,
0+
1*
#840000
0!
08
0c
0S
0d
#845000
1!
18
1c
1S
1d
1&!
1X
0f
1h
1l
1D
1,
#850000
0!
08
0c
0S
0d
#855000
1!
18
1c
1S
1d
1%!
0&!
0X
1Y
1f
0l
0m
0n
1o
1s
0D
1C
1p
1m
1n
0o
0,
1+
0p
#860000
0!
08
0c
0S
0d
#865000
1!
18
1c
1S
1d
1&!
1X
0f
0h
0i
1j
1l
1D
0m
0n
1o
0k
1,
1p
#870000
0!
08
0c
0S
0d
#875000
1!
18
1c
1S
1d
0%!
0$!
0#!
0"!
0!!
1~
0&!
0X
1^
0]
0\
0[
0Z
0Y
1f
1k
0l
0j
0o
0s
1x
0D
1>
0?
0@
0A
0B
0C
0k
0,
0+
0*
0)
0(
0'
1&
#880000
0!
08
0c
0S
0d
#885000
1!
18
1c
1S
1d
1&!
1X
0f
1h
1D
1,
#890000
0!
08
0c
0S
0d
#895000
1!
18
1c
1S
1d
1%!
0&!
0X
1Y
1f
0x
0D
1C
0,
1+
#900000
0!
08
0c
0S
0d
#905000
1!
18
1c
1S
1d
1&!
1X
0f
0h
1i
1D
1,
#910000
0!
08
0c
0S
0d
#915000
1!
18
1c
1S
1d
0%!
1$!
0&!
0X
1Z
0Y
1f
1x
0D
1B
0C
0,
0+
1*
#920000
0!
08
0c
0S
0d
#925000
1!
18
1c
1S
1d
1&!
1X
0f
1h
1D
1,
#930000
0!
08
0c
0S
0d
#935000
1!
18
1c
1S
1d
1%!
0&!
0X
1Y
1f
0x
0D
1C
0,
1+
#940000
0!
08
0c
0S
0d
#945000
1!
18
1c
1S
1d
1&!
1X
0f
0h
0i
1j
1D
1k
1,
#950000
0!
08
0c
0S
0d
#955000
1!
18
1c
1S
1d
0%!
0$!
1#!
0&!
0X
1[
0Z
0Y
1f
0k
0j
1x
0D
1A
0B
0C
1k
0,
0+
0*
1)
#960000
0!
08
0c
0S
0d
#965000
1!
18
1c
1S
1d
1&!
1X
0f
1h
1D
1,
#970000
0!
08
0c
0S
0d
#975000
1!
18
1c
1S
1d
1%!
0&!
0X
1Y
1f
0x
0D
1C
0,
1+
#980000
0!
08
0c
0S
0d
#985000
1!
18
1c
1S
1d
1&!
1X
0f
0h
1i
1D
1,
#990000
0!
08
0c
0S
0d
#995000
1!
18
1c
1S
1d
0%!
1$!
0&!
0X
1Z
0Y
1f
1x
0D
1B
0C
0,
0+
1*
#1000000
0!
08
0c
0S
0d
#1005000
1!
18
1c
1S
1d
1&!
1X
0f
1h
1l
1D
1,
#1010000
0!
08
0c
0S
0d
#1015000
1!
18
1c
1S
1d
1%!
0&!
0X
1Y
1f
0l
1m
0x
0D
1C
0m
0,
1+
#1020000
0!
08
0c
0S
0d
#1025000
1!
18
1c
1S
1d
1&!
1X
0f
0h
0i
1j
1l
1D
1m
0k
1,
#1030000
0!
08
0c
0S
0d
#1035000
1!
18
1c
1S
1d
0%!
0$!
0#!
1"!
0&!
0X
1\
0[
0Z
0Y
1f
1k
0l
0j
0D
1@
0A
0B
0C
0k
0,
0+
0*
0)
1(
#1040000
0!
08
0c
0S
0d
#1045000
1!
18
1c
1S
1d
1&!
1X
0f
1h
1D
1,
#1050000
0!
08
0c
0S
0d
#1055000
1!
18
1c
1S
1d
1%!
0&!
0X
1Y
1f
0D
1C
0,
1+
#1060000
0!
08
0c
0S
0d
#1065000
1!
18
1c
1S
1d
1&!
1X
0f
0h
1i
1D
1,
#1070000
0!
08
0c
0S
0d
#1075000
1!
18
1c
1S
1d
0%!
1$!
0&!
0X
1Z
0Y
1f
0D
1B
0C
0,
0+
1*
#1080000
0!
08
0c
0S
0d
#1085000
1!
18
1c
1S
1d
1&!
1X
0f
1h
1D
1,
#1090000
0!
08
0c
0S
0d
#1095000
1!
18
1c
1S
1d
1%!
0&!
0X
1Y
1f
0D
1C
0,
1+
#1100000
0!
08
0c
0S
0d
#1105000
1!
18
1c
1S
1d
1&!
1X
0f
0h
0i
1j
1D
1k
1,
#1110000
0!
08
0c
0S
0d
#1115000
1!
18
1c
1S
1d
0%!
0$!
1#!
0&!
0X
1[
0Z
0Y
1f
0k
0j
0D
1A
0B
0C
1k
0,
0+
0*
1)
#1120000
0!
08
0c
0S
0d
#1125000
1!
18
1c
1S
1d
1&!
1X
0f
1h
1D
1,
#1130000
0!
08
0c
0S
0d
#1135000
1!
18
1c
1S
1d
1%!
0&!
0X
1Y
1f
0D
1C
0,
1+
#1140000
0!
08
0c
0S
0d
#1145000
1!
18
1c
1S
1d
1&!
1X
0f
0h
1i
1D
1,
#1150000
0!
08
0c
0S
0d
#1155000
1!
18
1c
1S
1d
0%!
1$!
0&!
0X
1Z
0Y
1f
0D
1B
0C
0,
0+
1*
#1160000
0!
08
0c
0S
0d
#1165000
1!
18
1c
1S
1d
1&!
1X
0f
1h
1l
1D
1,
#1170000
0!
08
0c
0S
0d
#1175000
1!
18
1c
1S
1d
1%!
0&!
0X
1Y
1f
0l
0m
1n
1o
1s
0D
1C
1m
0n
0o
0,
1+
#1180000
0!
08
0c
0S
0d
#1185000
1!
18
1c
1S
1d
1&!
1X
0f
0h
0i
1j
1l
1D
0m
1n
1o
0k
1,
#1190000
0!
08
0c
0S
0d
#1195000
1!
18
1c
1S
1d
0%!
0$!
0#!
0"!
1!!
0&!
0X
1]
0\
0[
0Z
0Y
1f
0p
1q
1k
0l
0j
0o
0s
0D
1?
0@
0A
0B
0C
1p
0q
0k
0,
0+
0*
0)
0(
1'
#1200000
0!
08
0c
0S
0d
#1205000
1!
18
1c
1S
1d
1&!
1X
0f
1h
1D
1,
#1210000
0!
08
0c
0S
0d
#1215000
1!
18
1c
1S
1d
1%!
0&!
0X
1Y
1f
0D
1C
0,
1+
#1220000
0!
08
0c
0S
0d
#1225000
1!
18
1c
1S
1d
1&!
1X
0f
0h
1i
1D
1,
#1230000
0!
08
0c
0S
0d
#1235000
1!
18
1c
1S
1d
0%!
1$!
0&!
0X
1Z
0Y
1f
0D
1B
0C
0,
0+
1*
#1240000
0!
08
0c
0S
0d
#1245000
1!
18
1c
1S
1d
1&!
1X
0f
1h
1D
1,
#1250000
0!
08
0c
0S
0d
#1255000
1!
18
1c
1S
1d
1%!
0&!
0X
1Y
1f
0D
1C
0,
1+
#1260000
0!
08
0c
0S
0d
#1265000
1!
18
1c
1S
1d
1&!
1X
0f
0h
0i
1j
1D
1k
1,
#1270000
0!
08
0c
0S
0d
#1275000
1!
18
1c
1S
1d
0%!
0$!
1#!
0&!
0X
1[
0Z
0Y
1f
0k
0j
0D
1A
0B
0C
1k
0,
0+
0*
1)
#1280000
0!
08
0c
0S
0d
#1285000
1!
18
1c
1S
1d
1&!
1X
0f
1h
1D
1,
#1290000
0!
08
0c
0S
0d
#1295000
1!
18
1c
1S
1d
1%!
0&!
0X
1Y
1f
0D
1C
0,
1+
#1300000
0!
08
0c
0S
0d
#1305000
1!
18
1c
1S
1d
1&!
1X
0f
0h
1i
1D
1,
#1310000
0!
08
0c
0S
0d
#1315000
1!
18
1c
1S
1d
0%!
1$!
0&!
0X
1Z
0Y
1f
0D
1B
0C
0,
0+
1*
#1320000
0!
08
0c
0S
0d
#1325000
1!
18
1c
1S
1d
1&!
1X
0f
1h
1l
1D
1,
#1330000
0!
08
0c
0S
0d
#1335000
1!
18
1c
1S
1d
1%!
0&!
0X
1Y
1f
0l
1m
0D
1C
0m
0,
1+
#1340000
0!
08
0c
0S
0d
#1345000
1!
18
1c
1S
1d
1&!
1X
0f
0h
0i
1j
1l
1D
1m
0k
1,
#1350000
0!
08
0c
0S
0d
#1355000
1!
18
1c
1S
1d
0%!
0$!
0#!
1"!
0&!
0X
1\
0[
0Z
0Y
1f
1k
0l
0j
0D
1@
0A
0B
0C
0k
0,
0+
0*
0)
1(
#1360000
0!
08
0c
0S
0d
#1365000
1!
18
1c
1S
1d
1&!
1X
0f
1h
1D
1,
#1370000
0!
08
0c
0S
0d
#1375000
1!
18
1c
1S
1d
1%!
0&!
0X
1Y
1f
0D
1C
0,
1+
#1380000
0!
08
0c
0S
0d
#1385000
1!
18
1c
1S
1d
1&!
1X
0f
0h
1i
1D
1,
#1390000
0!
08
0c
0S
0d
#1395000
1!
18
1c
1S
1d
0%!
1$!
0&!
0X
1Z
0Y
1f
0D
1B
0C
0,
0+
1*
#1400000
0!
08
0c
0S
0d
#1405000
1!
18
1c
1S
1d
1&!
1X
0f
1h
1D
1,
#1410000
0!
08
0c
0S
0d
#1415000
1!
18
1c
1S
1d
1%!
0&!
0X
1Y
1f
0D
1C
0,
1+
#1420000
0!
08
0c
0S
0d
#1425000
1!
18
1c
1S
1d
1&!
1X
0f
0h
0i
1j
1D
1k
1,
#1430000
0!
08
0c
0S
0d
#1435000
1!
18
1c
1S
1d
0%!
0$!
1#!
0&!
0X
1[
0Z
0Y
1f
0k
0j
0D
1A
0B
0C
1k
0,
0+
0*
1)
#1440000
0!
08
0c
0S
0d
#1445000
1!
18
1c
1S
1d
1&!
1X
0f
1h
1D
1,
#1450000
0!
08
0c
0S
0d
#1455000
1!
18
1c
1S
1d
1%!
0&!
0X
1Y
1f
0D
1C
0,
1+
#1460000
0!
08
0c
0S
0d
#1465000
1!
18
1c
1S
1d
1&!
1X
0f
0h
1i
1D
1,
#1470000
0!
08
0c
0S
0d
#1475000
1!
18
1c
1S
1d
0%!
1$!
0&!
0X
1Z
0Y
1f
0D
1B
0C
0,
0+
1*
#1480000
0!
08
0c
0S
0d
#1485000
1!
18
1c
1S
1d
1&!
1X
0f
1h
1l
1D
1,
#1490000
0!
08
0c
0S
0d
#1495000
1!
18
1c
1S
1d
1%!
0&!
0X
1Y
1f
0l
0m
0n
1o
1s
0D
1C
0p
1q
1m
1n
0o
0,
1+
1p
0q
#1500000
0!
08
0c
0S
0d
#1505000
1!
18
1c
1S
1d
1&!
1X
0f
0h
0i
1j
1l
1D
0m
0n
1o
0k
1,
0p
1q
#1510000
0!
08
0c
0S
0d
#1515000
1!
18
1c
1S
1d
0%!
0$!
0#!
0"!
0!!
0~
1}
0&!
0X
1_
0^
0]
0\
0[
0Z
0Y
1f
1k
0l
0j
0o
0s
1x
0D
1=
0>
0?
0@
0A
0B
0C
0k
0,
0+
0*
0)
0(
0'
0&
1%
#1520000
0!
08
0c
0S
0d
#1525000
1!
18
1c
1S
1d
1&!
1X
0f
1h
1D
1,
#1530000
0!
08
0c
0S
0d
#1535000
1!
18
1c
1S
1d
1%!
0&!
0X
1Y
1f
0x
0D
1C
0,
1+
#1540000
0!
08
0c
0S
0d
#1545000
1!
18
1c
1S
1d
1&!
1X
0f
0h
1i
1D
1,
#1550000
0!
08
0c
0S
0d
#1555000
1!
18
1c
1S
1d
0%!
1$!
0&!
0X
1Z
0Y
1f
1x
0D
1B
0C
0,
0+
1*
#1560000
0!
08
0c
0S
0d
#1565000
1!
18
1c
1S
1d
1&!
1X
0f
1h
1D
1,
#1570000
0!
08
0c
0S
0d
#1575000
1!
18
1c
1S
1d
1%!
0&!
0X
1Y
1f
0x
0D
1C
0,
1+
#1580000
0!
08
0c
0S
0d
#1585000
1!
18
1c
1S
1d
1&!
1X
0f
0h
0i
1j
1D
1k
1,
#1590000
0!
08
0c
0S
0d
#1595000
1!
18
1c
1S
1d
0%!
0$!
1#!
0&!
0X
1[
0Z
0Y
1f
0k
0j
1x
0D
1A
0B
0C
1k
0,
0+
0*
1)
#1600000
0!
08
0c
0S
0d
#1605000
1!
18
1c
1S
1d
1&!
1X
0f
1h
1D
1,
#1610000
0!
08
0c
0S
0d
#1615000
1!
18
1c
1S
1d
1%!
0&!
0X
1Y
1f
0x
0D
1C
0,
1+
#1620000
0!
08
0c
0S
0d
#1625000
1!
18
1c
1S
1d
1&!
1X
0f
0h
1i
1D
1,
#1630000
0!
08
0c
0S
0d
#1635000
1!
18
1c
1S
1d
0%!
1$!
0&!
0X
1Z
0Y
1f
1x
0D
1B
0C
0,
0+
1*
#1640000
0!
08
0c
0S
0d
#1645000
1!
18
1c
1S
1d
1&!
1X
0f
1h
1l
1D
1,
#1650000
0!
08
0c
0S
0d
#1655000
1!
18
1c
1S
1d
1%!
0&!
0X
1Y
1f
0l
1m
0x
0D
1C
0m
0,
1+
#1660000
0!
08
0c
0S
0d
#1665000
1!
18
1c
1S
1d
1&!
1X
0f
0h
0i
1j
1l
1D
1m
0k
1,
#1670000
0!
08
0c
0S
0d
#1675000
1!
18
1c
1S
1d
0%!
0$!
0#!
1"!
0&!
0X
1\
0[
0Z
0Y
1f
1k
0l
0j
0D
1@
0A
0B
0C
0k
0,
0+
0*
0)
1(
#1680000
0!
08
0c
0S
0d
#1685000
1!
18
1c
1S
1d
1&!
1X
0f
1h
1D
1,
#1690000
0!
08
0c
0S
0d
#1695000
1!
18
1c
1S
1d
1%!
0&!
0X
1Y
1f
0D
1C
0,
1+
#1700000
0!
08
0c
0S
0d
#1705000
1!
18
1c
1S
1d
1&!
1X
0f
0h
1i
1D
1,
#1710000
0!
08
0c
0S
0d
#1715000
1!
18
1c
1S
1d
0%!
1$!
0&!
0X
1Z
0Y
1f
0D
1B
0C
0,
0+
1*
#1720000
0!
08
0c
0S
0d
#1725000
1!
18
1c
1S
1d
1&!
1X
0f
1h
1D
1,
#1730000
0!
08
0c
0S
0d
#1735000
1!
18
1c
1S
1d
1%!
0&!
0X
1Y
1f
0D
1C
0,
1+
#1740000
0!
08
0c
0S
0d
#1745000
1!
18
1c
1S
1d
1&!
1X
0f
0h
0i
1j
1D
1k
1,
#1750000
0!
08
0c
0S
0d
