Contador10b/simulation/qsim/Contador10b.msim.vcd
$comment
	File created using the following command:
		vcd file Contador10b.msim.vcd -direction
$end
$date
	Sun Feb 28 21:47:03 2021
$end
$version
	ModelSim Version 10.5b
$end
$timescale
	1ps
$end

$scope module contador10b_vhd_vec_tst $end
$var wire 1 ! CLK $end
$var wire 1 " Cout $end
$var wire 1 # CUENTA [9] $end
$var wire 1 $ CUENTA [8] $end
$var wire 1 % CUENTA [7] $end
$var wire 1 & CUENTA [6] $end
$var wire 1 ' CUENTA [5] $end
$var wire 1 ( CUENTA [4] $end
$var wire 1 ) CUENTA [3] $end
$var wire 1 * CUENTA [2] $end
$var wire 1 + CUENTA [1] $end
$var wire 1 , CUENTA [0] $end
$var wire 1 - RST $end

$scope module i1 $end
$var wire 1 . gnd $end
$var wire 1 / vcc $end
$var wire 1 0 unknown $end
$var wire 1 1 devoe $end
$var wire 1 2 devclrn $end
$var wire 1 3 devpor $end
$var wire 1 4 ww_devoe $end
$var wire 1 5 ww_devclrn $end
$var wire 1 6 ww_devpor $end
$var wire 1 7 ww_CLK $end
$var wire 1 8 ww_RST $end
$var wire 1 9 ww_CUENTA [9] $end
$var wire 1 : ww_CUENTA [8] $end
$var wire 1 ; ww_CUENTA [7] $end
$var wire 1 < ww_CUENTA [6] $end
$var wire 1 = ww_CUENTA [5] $end
$var wire 1 > ww_CUENTA [4] $end
$var wire 1 ? ww_CUENTA [3] $end
$var wire 1 @ ww_CUENTA [2] $end
$var wire 1 A ww_CUENTA [1] $end
$var wire 1 B ww_CUENTA [0] $end
$var wire 1 C ww_Cout $end
$var wire 1 D \~QUARTUS_CREATED_ADC1~_CHSEL_bus\ [4] $end
$var wire 1 E \~QUARTUS_CREATED_ADC1~_CHSEL_bus\ [3] $end
$var wire 1 F \~QUARTUS_CREATED_ADC1~_CHSEL_bus\ [2] $end
$var wire 1 G \~QUARTUS_CREATED_ADC1~_CHSEL_bus\ [1] $end
$var wire 1 H \~QUARTUS_CREATED_ADC1~_CHSEL_bus\ [0] $end
$var wire 1 I \~QUARTUS_CREATED_ADC2~_CHSEL_bus\ [4] $end
$var wire 1 J \~QUARTUS_CREATED_ADC2~_CHSEL_bus\ [3] $end
$var wire 1 K \~QUARTUS_CREATED_ADC2~_CHSEL_bus\ [2] $end
$var wire 1 L \~QUARTUS_CREATED_ADC2~_CHSEL_bus\ [1] $end
$var wire 1 M \~QUARTUS_CREATED_ADC2~_CHSEL_bus\ [0] $end
$var wire 1 N \RST~inputclkctrl_INCLK_bus\ [3] $end
$var wire 1 O \RST~inputclkctrl_INCLK_bus\ [2] $end
$var wire 1 P \RST~inputclkctrl_INCLK_bus\ [1] $end
$var wire 1 Q \RST~inputclkctrl_INCLK_bus\ [0] $end
$var wire 1 R \CLK~inputclkctrl_INCLK_bus\ [3] $end
$var wire 1 S \CLK~inputclkctrl_INCLK_bus\ [2] $end
$var wire 1 T \CLK~inputclkctrl_INCLK_bus\ [1] $end
$var wire 1 U \CLK~inputclkctrl_INCLK_bus\ [0] $end
$var wire 1 V \~QUARTUS_CREATED_GND~I_combout\ $end
$var wire 1 W \~QUARTUS_CREATED_UNVM~~busy\ $end
$var wire 1 X \~QUARTUS_CREATED_ADC1~~eoc\ $end
$var wire 1 Y \~QUARTUS_CREATED_ADC2~~eoc\ $end
$var wire 1 Z \CUENTA[0]~output_o\ $end
$var wire 1 [ \CUENTA[1]~output_o\ $end
$var wire 1 \ \CUENTA[2]~output_o\ $end
$var wire 1 ] \CUENTA[3]~output_o\ $end
$var wire 1 ^ \CUENTA[4]~output_o\ $end
$var wire 1 _ \CUENTA[5]~output_o\ $end
$var wire 1 ` \CUENTA[6]~output_o\ $end
$var wire 1 a \CUENTA[7]~output_o\ $end
$var wire 1 b \CUENTA[8]~output_o\ $end
$var wire 1 c \CUENTA[9]~output_o\ $end
$var wire 1 d \Cout~output_o\ $end
$var wire 1 e \CLK~input_o\ $end
$var wire 1 f \CLK~inputclkctrl_outclk\ $end
$var wire 1 g \Q[0]~10_combout\ $end
$var wire 1 h \RST~input_o\ $end
$var wire 1 i \RST~inputclkctrl_outclk\ $end
$var wire 1 j \Q[1]~0_combout\ $end
$var wire 1 k \Q[2]~1_combout\ $end
$var wire 1 l \Q[3]~2_combout\ $end
$var wire 1 m \I0|I3|Co~combout\ $end
$var wire 1 n \Q[4]~3_combout\ $end
$var wire 1 o \Q[5]~4_combout\ $end
$var wire 1 p \Q[6]~5_combout\ $end
$var wire 1 q \Q[7]~6_combout\ $end
$var wire 1 r \Q[7]~7_combout\ $end
$var wire 1 s \I0|I6|Co~combout\ $end
$var wire 1 t \Q[8]~8_combout\ $end
$var wire 1 u \Q[9]~9_combout\ $end
$var wire 1 v \I0|I9|Co~combout\ $end
$var wire 1 w Q [9] $end
$var wire 1 x Q [8] $end
$var wire 1 y Q [7] $end
$var wire 1 z Q [6] $end
$var wire 1 { Q [5] $end
$var wire 1 | Q [4] $end
$var wire 1 } Q [3] $end
$var wire 1 ~ Q [2] $end
$var wire 1 !! Q [1] $end
$var wire 1 "! Q [0] $end
$upscope $end
$upscope $end
$enddefinitions $end
#0
$dumpvars
0!
0"
0-
0.
1/
x0
11
12
13
14
15
16
07
08
0C
0V
zW
zX
zY
0Z
0[
0\
0]
0^
0_
0`
0a
0b
0c
0d
0e
0f
1g
0h
0i
0j
0k
0l
0m
0n
0o
0p
1q
0r
0s
0t
0u
0v
0#
0$
0%
0&
0'
0(
0)
0*
0+
0,
09
0:
0;
0<
0=
0>
0?
0@
0A
0B
0w
0x
0y
0z
0{
0|
0}
0~
0!!
0"!
1R
1S
1T
0U
1N
1O
1P
0Q
0D
0E
0F
0G
0H
0I
0J
0K
0L
0M
$end
#5000
1!
17
1e
1U
1f
#10000
0!
07
0e
0U
0f
#15000
1!
17
1e
1U
1f
#20000
0!
07
0e
0U
0f
#25000
1!
17
1e
1U
1f
#30000
0!
1-
07
18
1h
0e
1Q
0U
0f
1i
#35000
1!
17
1e
1U
1f
1"!
1Z
0g
1j
1B
1,
#40000
0!
07
0e
0U
0f
#45000
1!
17
1e
1U
1f
0"!
1!!
1[
0Z
1g
1A
0B
0,
1+
#50000
0!
07
0e
0U
0f
#55000
1!
17
1e
1U
1f
1"!
1Z
0g
0j
1k
1B
1,
#60000
0!
07
0e
0U
0f
#65000
1!
17
1e
1U
1f
0"!
0!!
1~
1\
0[
0Z
1g
1@
0A
0B
0,
0+
1*
#70000
0!
07
0e
0U
0f
#75000
1!
17
1e
1U
1f
1"!
1Z
0g
1j
1B
1,
#80000
0!
07
0e
0U
0f
#85000
1!
17
1e
1U
1f
0"!
1!!
1[
0Z
1g
1A
0B
0,
1+
#90000
0!
07
0e
0U
0f
#95000
1!
17
1e
1U
1f
1"!
1Z
0g
0j
0k
1l
1B
1,
#100000
0!
07
0e
0U
0f
#105000
1!
17
1e
1U
1f
0"!
0!!
0~
1}
1]
0\
0[
0Z
1g
1?
0@
0A
0B
0,
0+
0*
1)
#110000
0!
07
0e
0U
0f
#115000
1!
17
1e
1U
1f
1"!
1Z
0g
1j
1B
1,
#120000
0!
07
0e
0U
0f
#125000
1!
17
1e
1U
1f
0"!
1!!
1[
0Z
1g
1A
0B
0,
1+
#130000
0!
07
0e
0U
0f
#135000
1!
17
1e
1U
1f
1"!
1Z
0g
0j
1k
1B
1,
#140000
0!
07
0e
0U
0f
#145000
1!
17
1e
1U
1f
0"!
0!!
1~
1\
0[
0Z
1g
1@
0A
0B
0,
0+
1*
#150000
0!
07
0e
0U
0f
#155000
1!
17
1e
1U
1f
1"!
1Z
0g
1j
1B
1,
#160000
0!
07
0e
0U
0f
#165000
1!
17
1e
1U
1f
0"!
1!!
1[
0Z
1g
1A
0B
0,
1+
#170000
0!
07
0e
0U
0f
#175000
1!
17
1e
1U
1f
1"!
1Z
0g
0j
0k
0l
1m
1B
1n
1,
#180000
0!
07
0e
0U
0f
#185000
1!
17
1e
1U
1f
0"!
0!!
0~
0}
1|
1^
0]
0\
0[
0Z
0n
1o
1g
0m
1>
0?
0@
0A
0B
1n
0o
0,
0+
0*
0)
1(
#190000
0!
07
0e
0U
0f
#195000
1!
17
1e
1U
1f
1"!
1Z
0g
1j
1B
1,
#200000
0!
07
0e
0U
0f
#205000
1!
17
1e
1U
1f
0"!
1!!
1[
0Z
1g
1A
0B
0,
1+
#210000
0!
07
0e
0U
0f
#215000
1!
17
1e
1U
1f
1"!
1Z
0g
0j
1k
1B
1,
#220000
0!
07
0e
0U
0f
#225000
1!
17
1e
1U
1f
0"!
0!!
1~
1\
0[
0Z
1g
1@
0A
0B
0,
0+
1*
#230000
0!
07
0e
0U
0f
#235000
1!
17
1e
1U
1f
1"!
1Z
0g
1j
1B
1,
#240000
0!
07
0e
0U
0f
#245000
1!
17
1e
1U
1f
0"!
1!!
1[
0Z
1g
1A
0B
0,
1+
#250000
0!
07
0e
0U
0f
#255000
1!
17
1e
1U
1f
1"!
1Z
0g
0j
0k
1l
1B
1,
#260000
0!
07
0e
0U
0f
#265000
1!
17
1e
1U
1f
0"!
0!!
0~
1}
1]
0\
0[
0Z
1g
1?
0@
0A
0B
0,
0+
0*
1)
#270000
0!
07
0e
0U
0f
#275000
1!
17
1e
1U
1f
1"!
1Z
0g
1j
1B
1,
#280000
0!
07
0e
0U
0f
#285000
1!
17
1e
1U
1f
0"!
1!!
1[
0Z
1g
1A
0B
0,
1+
#290000
0!
07
0e
0U
0f
#295000
1!
17
1e
1U
1f
1"!
1Z
0g
0j
1k
1B
1,
#300000
0!
07
0e
0U
0f
#305000
1!
17
1e
1U
1f
0"!
0!!
1~
1\
0[
0Z
1g
1@
0A
0B
0,
0+
1*
#310000
0!
07
0e
0U
0f
#315000
1!
17
1e
1U
1f
1"!
1Z
0g
1j
1B
1,
#320000
0!
07
0e
0U
0f
#325000
1!
17
1e
1U
1f
0"!
1!!
1[
0Z
1g
1A
0B
0,
1+
#330000
0!
07
0e
0U
0f
#335000
1!
17
1e
1U
1f
1"!
1Z
0g
0j
0k
0l
1m
1B
0n
1o
1,
#340000
0!
07
0e
0U
0f
#345000
1!
17
1e
1U
1f
0"!
0!!
0~
0}
0|
1{
1_
0^
0]
0\
0[
0Z
1n
1g
0m
1=
0>
0?
0@
0A
0B
0n
0,
0+
0*
0)
0(
1'
#350000
0!
07
0e
0U
0f
#355000
1!
17
1e
1U
1f
1"!
1Z
0g
1j
1B
1,
#360000
0!
07
0e
0U
0f
#365000
1!
17
1e
1U
1f
0"!
1!!
1[
0Z
1g
1A
0B
0,
1+
#370000
0!
07
0e
0U
0f
#375000
1!
17
1e
1U
1f
1"!
1Z
0g
0j
1k
1B
1,
#380000
0!
07
0e
0U
0f
#385000
1!
17
1e
1U
1f
0"!
0!!
1~
1\
0[
0Z
1g
1@
0A
0B
0,
0+
1*
#390000
0!
07
0e
0U
0f
#395000
1!
17
1e
1U
1f
1"!
1Z
0g
1j
1B
1,
#400000
0!
07
0e
0U
0f
#405000
1!
17
1e
1U
1f
0"!
1!!
1[
0Z
1g
1A
0B
0,
1+
#410000
0!
07
0e
0U
0f
#415000
1!
17
1e
1U
1f
1"!
1Z
0g
0j
0k
1l
1B
1,
#420000
0!
07
0e
0U
0f
#425000
1!
17
1e
1U
1f
0"!
0!!
0~
1}
1]
0\
0[
0Z
1g
1?
0@
0A
0B
0,
0+
0*
1)
#430000
0!
07
0e
0U
0f
#435000
1!
17
1e
1U
1f
1"!
1Z
0g
1j
1B
1,
#440000
0!
07
0e
0U
0f
#445000
1!
17
1e
1U
1f
0"!
1!!
1[
0Z
1g
1A
0B
0,
1+
#450000
0!
07
0e
0U
0f
#455000
1!
17
1e
1U
1f
1"!
1Z
0g
0j
1k
1B
1,
#460000
0!
07
0e
0U
0f
#465000
1!
17
1e
1U
1f
0"!
0!!
1~
1\
0[
0Z
1g
1@
0A
0B
0,
0+
1*
#470000
0!
07
0e
0U
0f
#475000
1!
17
1e
1U
1f
1"!
1Z
0g
1j
1B
1,
#480000
0!
07
0e
0U
0f
#485000
1!
17
1e
1U
1f
0"!
1!!
1[
0Z
1g
1A
0B
0,
1+
#490000
0!
07
0e
0U
0f
#495000
1!
17
1e
1U
1f
1"!
1Z
0g
0j
0k
0l
1m
1B
1n
1,
#500000
0!
07
0e
0U
0f
#505000
1!
17
1e
1U
1f
0"!
0!!
0~
0}
1|
1^
0]
0\
0[
0Z
0n
0o
1p
1g
0m
1>
0?
0@
0A
0B
1n
1o
0p
0,
0+
0*
0)
1(
#510000
0!
07
0e
0U
0f
#515000
1!
17
1e
1U
1f
1"!
1Z
0g
1j
1B
1,
#520000
0!
07
0e
0U
0f
#525000
1!
17
1e
1U
1f
0"!
1!!
1[
0Z
1g
1A
0B
0,
1+
#530000
0!
07
0e
0U
0f
#535000
1!
17
1e
1U
1f
1"!
1Z
0g
0j
1k
1B
1,
#540000
0!
07
0e
0U
0f
#545000
1!
17
1e
1U
1f
0"!
0!!
1~
1\
0[
0Z
1g
1@
0A
0B
0,
0+
1*
#550000
0!
07
0e
0U
0f
#555000
1!
17
1e
1U
1f
1"!
1Z
0g
1j
1B
1,
#560000
0!
07
0e
0U
0f
#565000
1!
17
1e
1U
1f
0"!
1!!
1[
0Z
1g
1A
0B
0,
1+
#570000
0!
07
0e
0U
0f
#575000
1!
17
1e
1U
1f
1"!
1Z
0g
0j
0k
1l
1B
1,
#580000
0!
07
0e
0U
0f
#585000
1!
17
1e
1U
1f
0"!
0!!
0~
1}
1]
0\
0[
0Z
1g
1?
0@
0A
0B
0,
0+
0*
1)
#590000
0!
07
0e
0U
0f
#595000
1!
17
1e
1U
1f
1"!
1Z
0g
1j
1B
1,
#600000
0!
07
0e
0U
0f
#605000
1!
17
1e
1U
1f
0"!
1!!
1[
0Z
1g
1A
0B
0,
1+
#610000
0!
07
0e
0U
0f
#615000
1!
17
1e
1U
1f
1"!
1Z
0g
0j
1k
1B
1,
#620000
0!
07
0e
0U
0f
#625000
1!
17
1e
1U
1f
0"!
0!!
1~
1\
0[
0Z
1g
1@
0A
0B
0,
0+
1*
#630000
0!
07
0e
0U
0f
#635000
1!
17
1e
1U
1f
1"!
1Z
0g
1j
1B
1,
#640000
0!
07
0e
0U
0f
#645000
1!
17
1e
1U
1f
0"!
1!!
1[
0Z
1g
1A
0B
0,
1+
#650000
0!
07
0e
0U
0f
#655000
1!
17
1e
1U
1f
1"!
1Z
0g
0j
0k
0l
1m
1B
0n
0o
1p
1,
#660000
0!
07
0e
0U
0f
#665000
1!
17
1e
1U
1f
0"!
0!!
0~
0}
0|
0{
1z
1`
0_
0^
0]
0\
0[
0Z
1n
1g
0m
1<
0=
0>
0?
0@
0A
0B
0n
0,
0+
0*
0)
0(
0'
1&
#670000
0!
07
0e
0U
0f
#675000
1!
17
1e
1U
1f
1"!
1Z
0g
1j
1B
1,
#680000
0!
07
0e
0U
0f
#685000
1!
17
1e
1U
1f
0"!
1!!
1[
0Z
1g
1A
0B
0,
1+
#690000
0!
07
0e
0U
0f
#695000
1!
17
1e
1U
1f
1"!
1Z
0g
0j
1k
1B
1,
#700000
0!
07
0e
0U
0f
#705000
1!
17
1e
1U
1f
0"!
0!!
1~
1\
0[
0Z
1g
1@
0A
0B
0,
0+
1*
#710000
0!
07
0e
0U
0f
#715000
1!
17
1e
1U
1f
1"!
1Z
0g
1j
1B
1,
#720000
0!
07
0e
0U
0f
#725000
1!
17
1e
1U
1f
0"!
1!!
1[
0Z
1g
1A
0B
0,
1+
#730000
0!
07
0e
0U
0f
#735000
1!
17
1e
1U
1f
1"!
1Z
0g
0j
0k
1l
1B
1,
#740000
0!
07
0e
0U
0f
#745000
1!
17
1e
1U
1f
0"!
0!!
0~
1}
1]
0\
0[
0Z
1g
1?
0@
0A
0B
0,
0+
0*
1)
#750000
0!
07
0e
0U
0f
#755000
1!
17
1e
1U
1f
1"!
1Z
0g
1j
1B
1,
#760000
0!
07
0e
0U
0f
#765000
1!
17
1e
1U
1f
0"!
1!!
1[
0Z
1g
1A
0B
0,
1+
#770000
0!
07
0e
0U
0f
#775000
1!
17
1e
1U
1f
1"!
1Z
0g
0j
1k
1B
1,
#780000
0!
07
0e
0U
0f
#785000
1!
17
1e
1U
1f
0"!
0!!
1~
1\
0[
0Z
1g
1@
0A
0B
0,
0+
1*
#790000
0!
07
0e
0U
0f
#795000
1!
17
1e
1U
1f
1"!
1Z
0g
1j
1B
1,
#800000
0!
07
0e
0U
0f
#805000
1!
17
1e
1U
1f
0"!
1!!
1[
0Z
1g
1A
0B
0,
1+
#810000
0!
07
0e
0U
0f
#815000
1!
17
1e
1U
1f
1"!
1Z
0g
0j
0k
0l
1m
1B
1n
1,
#820000
0!
07
0e
0U
0f
#825000
1!
17
1e
1U
1f
0"!
0!!
0~
0}
1|
1^
0]
0\
0[
0Z
0n
1o
1g
0m
1>
0?
0@
0A
0B
1n
0o
0,
0+
0*
0)
1(
#830000
0!
07
0e
0U
0f
#835000
1!
17
1e
1U
1f
1"!
1Z
0g
1j
1B
1,
#840000
0!
07
0e
0U
0f
#845000
1!
17
1e
1U
1f
0"!
1!!
1[
0Z
1g
1A
0B
0,
1+
#850000
0!
07
0e
0U
0f
#855000
1!
17
1e
1U
1f
1"!
1Z
0g
0j
1k
1B
1,
#860000
0!
07
0e
0U
0f
#865000
1!
17
1e
1U
1f
0"!
0!!
1~
1\
0[
0Z
1g
1@
0A
0B
0,
0+
1*
#870000
0!
07
0e
0U
0f
#875000
1!
17
1e
1U
1f
1"!
1Z
0g
1j
1B
1,
#880000
0!
07
0e
0U
0f
#885000
1!
17
1e
1U
1f
0"!
1!!
1[
0Z
1g
1A
0B
0,
1+
#890000
0!
07
0e
0U
0f
#895000
1!
17
1e
1U
1f
1"!
1Z
0g
0j
0k
1l
1B
1,
#900000
0!
07
0e
0U
0f
#905000
1!
17
1e
1U
1f
0"!
0!!
0~
1}
1]
0\
0[
0Z
1g
1?
0@
0A
0B
0,
0+
0*
1)
#910000
0!
07
0e
0U
0f
#915000
1!
17
1e
1U
1f
1"!
1Z
0g
1j
1B
1,
#920000
0!
07
0e
0U
0f
#925000
1!
17
1e
1U
1f
0"!
1!!
1[
0Z
1g
1A
0B
0,
1+
#930000
0!
07
0e
0U
0f
#935000
1!
17
1e
1U
1f
1"!
1Z
0g
0j
1k
1B
1,
#940000
0!
07
0e
0U
0f
#945000
1!
17
1e
1U
1f
0"!
0!!
1~
1\
0[
0Z
1g
1@
0A
0B
0,
0+
1*
#950000
0!
07
0e
0U
0f
#955000
1!
17
1e
1U
1f
1"!
1Z
0g
1j
1B
1,
#960000
0!
07
0e
0U
0f
#965000
1!
17
1e
1U
1f
0"!
1!!
1[
0Z
1g
1A
0B
0,
1+
#970000
0!
07
0e
0U
0f
#975000
1!
17
1e
1U
1f
1"!
1Z
0g
0j
0k
0l
1m
1B
0n
1o
1,
#980000
0!
07
0e
0U
0f
#985000
1!
17
1e
1U
1f
0"!
0!!
0~
0}
0|
1{
1_
0^
0]
0\
0[
0Z
0q
1n
1g
0m
1=
0>
0?
0@
0A
0B
0n
0,
0+
0*
0)
0(
1'
#990000
0!
07
0e
0U
0f
#995000
1!
17
1e
1U
1f
1"!
1Z
0g
1j
1B
1,
