MasUno10b/simulation/qsim/MasUno10b.msim.vcd
$comment
	File created using the following command:
		vcd file MasUno10b.msim.vcd -direction
$end
$date
	Sun Feb 28 21:34:43 2021
$end
$version
	ModelSim Version 10.5b
$end
$timescale
	1ps
$end

$scope module masuno10b_vhd_vec_tst $end
$var wire 1 ! A [9] $end
$var wire 1 " A [8] $end
$var wire 1 # A [7] $end
$var wire 1 $ A [6] $end
$var wire 1 % A [5] $end
$var wire 1 & A [4] $end
$var wire 1 ' A [3] $end
$var wire 1 ( A [2] $end
$var wire 1 ) A [1] $end
$var wire 1 * A [0] $end
$var wire 1 + Cout $end
$var wire 1 , S [9] $end
$var wire 1 - S [8] $end
$var wire 1 . S [7] $end
$var wire 1 / S [6] $end
$var wire 1 0 S [5] $end
$var wire 1 1 S [4] $end
$var wire 1 2 S [3] $end
$var wire 1 3 S [2] $end
$var wire 1 4 S [1] $end
$var wire 1 5 S [0] $end

$scope module i1 $end
$var wire 1 6 gnd $end
$var wire 1 7 vcc $end
$var wire 1 8 unknown $end
$var wire 1 9 devoe $end
$var wire 1 : devclrn $end
$var wire 1 ; devpor $end
$var wire 1 < ww_devoe $end
$var wire 1 = ww_devclrn $end
$var wire 1 > ww_devpor $end
$var wire 1 ? ww_A [9] $end
$var wire 1 @ ww_A [8] $end
$var wire 1 A ww_A [7] $end
$var wire 1 B ww_A [6] $end
$var wire 1 C ww_A [5] $end
$var wire 1 D ww_A [4] $end
$var wire 1 E ww_A [3] $end
$var wire 1 F ww_A [2] $end
$var wire 1 G ww_A [1] $end
$var wire 1 H ww_A [0] $end
$var wire 1 I ww_S [9] $end
$var wire 1 J ww_S [8] $end
$var wire 1 K ww_S [7] $end
$var wire 1 L ww_S [6] $end
$var wire 1 M ww_S [5] $end
$var wire 1 N ww_S [4] $end
$var wire 1 O ww_S [3] $end
$var wire 1 P ww_S [2] $end
$var wire 1 Q ww_S [1] $end
$var wire 1 R ww_S [0] $end
$var wire 1 S ww_Cout $end
$var wire 1 T \~QUARTUS_CREATED_ADC1~_CHSEL_bus\ [4] $end
$var wire 1 U \~QUARTUS_CREATED_ADC1~_CHSEL_bus\ [3] $end
$var wire 1 V \~QUARTUS_CREATED_ADC1~_CHSEL_bus\ [2] $end
$var wire 1 W \~QUARTUS_CREATED_ADC1~_CHSEL_bus\ [1] $end
$var wire 1 X \~QUARTUS_CREATED_ADC1~_CHSEL_bus\ [0] $end
$var wire 1 Y \~QUARTUS_CREATED_ADC2~_CHSEL_bus\ [4] $end
$var wire 1 Z \~QUARTUS_CREATED_ADC2~_CHSEL_bus\ [3] $end
$var wire 1 [ \~QUARTUS_CREATED_ADC2~_CHSEL_bus\ [2] $end
$var wire 1 \ \~QUARTUS_CREATED_ADC2~_CHSEL_bus\ [1] $end
$var wire 1 ] \~QUARTUS_CREATED_ADC2~_CHSEL_bus\ [0] $end
$var wire 1 ^ \~QUARTUS_CREATED_GND~I_combout\ $end
$var wire 1 _ \~QUARTUS_CREATED_UNVM~~busy\ $end
$var wire 1 ` \~QUARTUS_CREATED_ADC1~~eoc\ $end
$var wire 1 a \~QUARTUS_CREATED_ADC2~~eoc\ $end
$var wire 1 b \S[0]~output_o\ $end
$var wire 1 c \S[1]~output_o\ $end
$var wire 1 d \S[2]~output_o\ $end
$var wire 1 e \S[3]~output_o\ $end
$var wire 1 f \S[4]~output_o\ $end
$var wire 1 g \S[5]~output_o\ $end
$var wire 1 h \S[6]~output_o\ $end
$var wire 1 i \S[7]~output_o\ $end
$var wire 1 j \S[8]~output_o\ $end
$var wire 1 k \S[9]~output_o\ $end
$var wire 1 l \Cout~output_o\ $end
$var wire 1 m \A[0]~input_o\ $end
$var wire 1 n \A[1]~input_o\ $end
$var wire 1 o \I1|S~combout\ $end
$var wire 1 p \A[2]~input_o\ $end
$var wire 1 q \I2|S~combout\ $end
$var wire 1 r \A[3]~input_o\ $end
$var wire 1 s \I3|S~combout\ $end
$var wire 1 t \I3|Co~combout\ $end
$var wire 1 u \A[4]~input_o\ $end
$var wire 1 v \I4|S~combout\ $end
$var wire 1 w \A[5]~input_o\ $end
$var wire 1 x \I5|S~combout\ $end
$var wire 1 y \A[6]~input_o\ $end
$var wire 1 z \I6|S~combout\ $end
$var wire 1 { \I6|Co~combout\ $end
$var wire 1 | \A[7]~input_o\ $end
$var wire 1 } \I7|S~combout\ $end
$var wire 1 ~ \A[8]~input_o\ $end
$var wire 1 !! \I8|S~combout\ $end
$var wire 1 "! \A[9]~input_o\ $end
$var wire 1 #! \I9|S~combout\ $end
$var wire 1 $! \I9|Co~combout\ $end
$var wire 1 %! \ALT_INV_A[0]~input_o\ $end
$upscope $end
$upscope $end
$enddefinitions $end
#0
$dumpvars
0+
06
17
x8
19
1:
1;
1<
1=
1>
0S
0^
z_
z`
za
1b
0c
0d
0e
0f
0g
0h
0i
0j
0k
0l
0m
0n
0o
0p
0q
0r
0s
0t
0u
0v
0w
0x
0y
0z
0{
0|
0}
0~
0!!
0"!
0#!
0$!
1%!
0!
0"
0#
0$
0%
0&
0'
0(
0)
0*
0?
0@
0A
0B
0C
0D
0E
0F
0G
0H
0I
0J
0K
0L
0M
0N
0O
0P
0Q
1R
0T
0U
0V
0W
0X
0Y
0Z
0[
0\
0]
0,
0-
0.
0/
00
01
02
03
04
15
$end
#20000
1*
1H
1m
0%!
1o
0b
1c
0R
1Q
05
14
#40000
0*
1)
0H
1G
1n
0m
1%!
1b
1R
15
#60000
1*
1H
1m
0%!
0o
1q
0b
1d
0c
0R
1P
0Q
05
04
13
#80000
0*
0)
1(
0H
0G
1F
1p
0n
0m
1%!
1b
1R
15
#100000
1*
1H
1m
0%!
1o
0b
1c
0R
1Q
05
14
#120000
0*
1)
0H
1G
1n
0m
1%!
1b
1R
15
#140000
1*
1H
1m
0%!
0o
0q
1s
0b
1e
0d
0c
0R
1O
0P
0Q
05
04
03
12
#160000
0*
0)
0(
1'
0H
0G
0F
1E
1r
0p
0n
0m
1%!
1b
1R
15
#180000
1*
1H
1m
0%!
1o
0b
1c
0R
1Q
05
14
#200000
0*
1)
0H
1G
1n
0m
1%!
1b
1R
15
#220000
1*
1H
1m
0%!
0o
1q
0b
1d
0c
0R
1P
0Q
05
04
13
#240000
0*
0)
1(
0H
0G
1F
1p
0n
0m
1%!
1b
1R
15
#260000
1*
1H
1m
0%!
1o
0b
1c
0R
1Q
05
14
#280000
0*
1)
0H
1G
1n
0m
1%!
1b
1R
15
#300000
1*
1H
1m
0%!
0o
0q
0s
1t
0b
0e
0d
0c
1v
0R
0O
0P
0Q
05
1f
04
03
02
1N
11
#320000
0*
0)
0(
0'
1&
0H
0G
0F
0E
1D
1u
0r
0p
0n
0m
1%!
0t
0v
1x
1b
1g
0f
1v
0x
1R
1M
0N
15
0g
1f
01
10
0M
1N
11
00
#340000
1*
1H
1m
0%!
1o
0b
1c
0R
1Q
05
14
#360000
0*
1)
0H
1G
1n
0m
1%!
1b
1R
15
#380000
1*
1H
1m
0%!
0o
1q
0b
1d
0c
0R
1P
0Q
05
04
13
#400000
0*
0)
1(
0H
0G
1F
1p
0n
0m
1%!
1b
1R
15
#420000
1*
1H
1m
0%!
1o
0b
1c
0R
1Q
05
14
#440000
0*
1)
0H
1G
1n
0m
1%!
1b
1R
15
#460000
1*
1H
1m
0%!
0o
0q
1s
0b
1e
0d
0c
0R
1O
0P
0Q
05
04
03
12
#480000
0*
0)
0(
1'
0H
0G
0F
1E
1r
0p
0n
0m
1%!
1b
1R
15
#500000
1*
1H
1m
0%!
1o
0b
1c
0R
1Q
05
14
#520000
0*
1)
0H
1G
1n
0m
1%!
1b
1R
15
#540000
1*
1H
1m
0%!
0o
1q
0b
1d
0c
0R
1P
0Q
05
04
13
#560000
0*
0)
1(
0H
0G
1F
1p
0n
0m
1%!
1b
1R
15
#580000
1*
1H
1m
0%!
1o
0b
1c
0R
1Q
05
14
#600000
0*
1)
0H
1G
1n
0m
1%!
1b
1R
15
#620000
1*
1H
1m
0%!
0o
0q
0s
1t
0b
0e
0d
0c
0v
1x
0R
0O
0P
0Q
05
1g
0f
04
03
02
1M
0N
01
10
#640000
0*
0)
0(
0'
0&
1%
0H
0G
0F
0E
0D
1C
1w
0u
0r
0p
0n
0m
1%!
0t
1v
1b
1f
0v
1R
1N
15
0f
11
0N
01
#660000
1*
1H
1m
0%!
1o
0b
1c
0R
1Q
05
14
#680000
0*
1)
0H
1G
1n
0m
1%!
1b
1R
15
#700000
1*
1H
1m
0%!
0o
1q
0b
1d
0c
0R
1P
0Q
05
04
13
#720000
0*
0)
1(
0H
0G
1F
1p
0n
0m
1%!
1b
1R
15
#740000
1*
1H
1m
0%!
1o
0b
1c
0R
1Q
05
14
#760000
0*
1)
0H
1G
1n
0m
1%!
1b
1R
15
#780000
1*
1H
1m
0%!
0o
0q
1s
0b
1e
0d
0c
0R
1O
0P
0Q
05
04
03
12
#800000
0*
0)
0(
1'
0H
0G
0F
1E
1r
0p
0n
0m
1%!
1b
1R
15
#820000
1*
1H
1m
0%!
1o
0b
1c
0R
1Q
05
14
#840000
0*
1)
0H
1G
1n
0m
1%!
1b
1R
15
#860000
1*
1H
1m
0%!
0o
1q
0b
1d
0c
0R
1P
0Q
05
04
13
#880000
1(
1&
1!
1"
1#
1$
1F
1D
1B
1A
1@
1?
1"!
1~
1|
1y
1u
1p
0q
0s
1t
1v
1z
1}
1!!
1#!
1k
1j
1i
1h
1f
0e
0d
0v
0x
0z
1{
1I
1J
1K
1L
1N
0O
0P
0h
0g
0f
0}
0!!
0#!
1$!
03
02
11
1/
1.
1-
1,
0L
0M
0N
1l
0k
0j
0i
01
00
0/
1S
0I
0J
0K
1+
0.
0-
0,
#900000
0&
0!
0"
0#
0$
0)
0G
0D
0B
0A
0@
0?
0"!
0~
0|
0y
0u
0n
1o
1q
1s
0t
1v
1x
0{
1}
0$!
0l
1i
1g
1f
1e
1d
1c
0}
0v
0S
1K
1M
1N
1O
1P
1Q
0f
0i
0+
14
13
12
11
10
1.
0N
0K
01
0.
#920000
1)
0*
0H
1G
1n
0m
1%!
1b
1R
15
#940000
1*
1H
1m
0%!
0o
0q
0s
1t
0b
0e
0d
0c
1v
0R
0O
0P
0Q
05
1f
04
03
02
1N
11
#960000
0*
0)
1&
0(
0'
0H
0G
0F
0E
1D
1u
0r
0p
0n
0m
1%!
0t
0v
0x
1z
1b
1h
0g
0f
1v
1x
0z
1R
1L
0M
0N
15
0h
1g
1f
01
00
1/
0L
1M
1N
11
10
0/
#980000
1*
1H
1m
0%!
1o
0b
1c
0R
1Q
05
14
