FlipFlopJK/simulation/qsim/FlipFlopJK.msim.vcd
$comment
	File created using the following command:
		vcd file FlipFlopJK.msim.vcd -direction
$end
$date
	Fri Feb 26 19:21:24 2021
$end
$version
	ModelSim Version 10.5b
$end
$timescale
	1ps
$end

$scope module flipflopjk_vhd_vec_tst $end
$var wire 1 ! CLK $end
$var wire 1 " J $end
$var wire 1 # K $end
$var wire 1 $ NOT_Q $end
$var wire 1 % Q $end
$var wire 1 & RST $end

$scope module i1 $end
$var wire 1 ' gnd $end
$var wire 1 ( vcc $end
$var wire 1 ) unknown $end
$var wire 1 * devoe $end
$var wire 1 + devclrn $end
$var wire 1 , devpor $end
$var wire 1 - ww_devoe $end
$var wire 1 . ww_devclrn $end
$var wire 1 / ww_devpor $end
$var wire 1 0 ww_CLK $end
$var wire 1 1 ww_RST $end
$var wire 1 2 ww_J $end
$var wire 1 3 ww_K $end
$var wire 1 4 ww_Q $end
$var wire 1 5 ww_NOT_Q $end
$var wire 1 6 \Q~output_o\ $end
$var wire 1 7 \NOT_Q~output_o\ $end
$var wire 1 8 \CLK~input_o\ $end
$var wire 1 9 \J~input_o\ $end
$var wire 1 : \K~input_o\ $end
$var wire 1 ; \C~0_combout\ $end
$var wire 1 < \RST~input_o\ $end
$var wire 1 = \C~q\ $end
$var wire 1 > \ALT_INV_C~q\ $end
$upscope $end
$upscope $end
$enddefinitions $end
#0
$dumpvars
0!
0"
0#
1$
0%
0&
0'
1(
x)
1*
1+
1,
1-
1.
1/
00
01
02
03
04
15
06
17
08
09
0:
0;
0<
0=
1>
$end
#10000
1"
1#
12
13
1:
19
1;
#20000
0"
0#
1!
02
03
10
18
0:
09
0;
#30000
1"
1#
12
13
1:
19
1;
#40000
0"
0#
0!
1&
02
03
00
11
1<
08
0:
09
0;
#50000
1"
1#
12
13
1:
19
1;
#60000
0"
0#
1!
02
03
10
18
0:
09
0;
1=
0>
16
1;
07
14
05
1%
0$
#70000
1"
1#
12
13
1:
19
0;
#80000
0"
0#
0!
02
03
00
08
0:
09
1;
#90000
1"
1#
12
13
1:
19
0;
#100000
0"
0#
1!
02
03
10
18
0:
09
1;
0=
1>
06
0;
17
04
15
0%
1$
#110000
1"
1#
12
13
1:
19
1;
#120000
0"
0#
0!
02
03
00
08
0:
09
0;
#130000
1"
1#
12
13
1:
19
1;
#140000
0"
0#
1!
02
03
10
18
0:
09
0;
1=
0>
16
1;
07
14
05
1%
0$
#150000
1"
1#
12
13
1:
19
0;
#160000
0"
0#
0!
02
03
00
08
0:
09
1;
#170000
1"
1#
12
13
1:
19
0;
#180000
0"
0#
1!
02
03
10
18
0:
09
1;
0=
1>
06
0;
17
04
15
0%
1$
#190000
1"
1#
12
13
1:
19
1;
#200000
0"
0#
0!
02
03
00
08
0:
09
0;
#210000
1"
1#
12
13
1:
19
1;
#220000
0"
0#
1!
02
03
10
18
0:
09
0;
1=
0>
16
1;
07
14
05
1%
0$
#230000
1"
1#
12
13
1:
19
0;
#240000
0"
0#
0!
02
03
00
08
0:
09
1;
#250000
1"
1#
12
13
1:
19
0;
#260000
0"
0#
1!
02
03
10
18
0:
09
1;
0=
1>
06
0;
17
04
15
0%
1$
#270000
1"
1#
12
13
1:
19
1;
#280000
0"
0#
0!
02
03
00
08
0:
09
0;
#290000
1"
1#
12
13
1:
19
1;
#300000
0"
0#
1!
02
03
10
18
0:
09
0;
1=
0>
16
1;
07
14
05
1%
0$
#310000
1"
1#
12
13
1:
19
0;
#320000
0"
0#
0!
02
03
00
08
0:
09
1;
#330000
1"
1#
12
13
1:
19
0;
#340000
0"
0#
1!
02
03
10
18
0:
09
1;
0=
1>
06
0;
17
04
15
0%
1$
#350000
1"
1#
12
13
1:
19
1;
#360000
0"
0#
0!
02
03
00
08
0:
09
0;
#370000
1"
1#
12
13
1:
19
1;
#380000
0"
0#
1!
02
03
10
18
0:
09
0;
1=
0>
16
1;
07
14
05
1%
0$
#390000
1"
1#
12
13
1:
19
0;
#400000
0"
0#
0!
02
03
00
08
0:
09
1;
#410000
1"
1#
12
13
1:
19
0;
#420000
0"
0#
1!
02
03
10
18
0:
09
1;
0=
1>
06
0;
17
04
15
0%
1$
#430000
1"
1#
12
13
1:
19
1;
#440000
0"
0#
0!
02
03
00
08
0:
09
0;
#450000
1"
1#
12
13
1:
19
1;
#460000
0"
0#
1!
02
03
10
18
0:
09
0;
1=
0>
16
1;
07
14
05
1%
0$
#470000
1"
1#
12
13
1:
19
0;
#480000
0"
0#
0!
02
03
00
08
0:
09
1;
#490000
1"
1#
12
13
1:
19
0;
#500000
0"
0#
1!
02
03
10
18
0:
09
1;
0=
1>
06
0;
17
04
15
0%
1$
#510000
1"
1#
12
13
1:
19
1;
#520000
0"
0#
0!
02
03
00
08
0:
09
0;
#530000
1"
1#
12
13
1:
19
1;
#540000
0"
0#
1!
02
03
10
18
0:
09
0;
1=
0>
16
1;
07
14
05
1%
0$
#550000
1"
1#
12
13
1:
19
0;
#560000
0"
0#
0!
02
03
00
08
0:
09
1;
#570000
1"
1#
12
13
1:
19
0;
#580000
0"
0#
1!
02
03
10
18
0:
09
1;
0=
1>
06
0;
17
04
15
0%
1$
#590000
1"
1#
12
13
1:
19
1;
#600000
0"
0#
0!
02
03
00
08
0:
09
0;
#610000
1"
1#
12
13
1:
19
1;
#620000
0"
0#
1!
02
03
10
18
0:
09
0;
1=
0>
16
1;
07
14
05
1%
0$
#630000
1"
1#
12
13
1:
19
0;
#640000
0"
0#
0!
02
03
00
08
0:
09
1;
#650000
1"
1#
12
13
1:
19
0;
#660000
0"
0#
1!
02
03
10
18
0:
09
1;
0=
1>
06
0;
17
04
15
0%
1$
#670000
1"
1#
12
13
1:
19
1;
#680000
0"
0#
0!
02
03
00
08
0:
09
0;
#690000
1"
1#
12
13
1:
19
1;
#700000
0"
0#
1!
02
03
10
18
0:
09
0;
1=
0>
16
1;
07
14
05
1%
0$
#710000
1"
1#
12
13
1:
19
0;
#720000
0"
0#
0!
02
03
00
08
0:
09
1;
#730000
1"
1#
12
13
1:
19
0;
#740000
0"
0#
1!
02
03
10
18
0:
09
1;
0=
1>
06
0;
17
04
15
0%
1$
#750000
1"
1#
12
13
1:
19
1;
#760000
0"
0#
0!
02
03
00
08
0:
09
0;
#770000
1"
1#
12
13
1:
19
1;
#780000
0"
0#
1!
02
03
10
18
0:
09
0;
1=
0>
16
1;
07
14
05
1%
0$
#790000
1"
1#
12
13
1:
19
0;
#800000
0"
0#
0!
02
03
00
08
0:
09
1;
#810000
1"
1#
12
13
1:
19
0;
#820000
0"
0#
1!
02
03
10
18
0:
09
1;
0=
1>
06
0;
17
04
15
0%
1$
#830000
1"
1#
12
13
1:
19
1;
#840000
0"
0#
0!
02
03
00
08
0:
09
0;
#850000
1"
1#
12
13
1:
19
1;
#860000
0"
0#
1!
02
03
10
18
0:
09
0;
1=
0>
16
1;
07
14
05
1%
0$
#870000
1"
1#
12
13
1:
19
0;
#880000
0"
0#
0!
02
03
00
08
0:
09
1;
#890000
1"
1#
12
13
1:
19
0;
#900000
0"
0#
1!
02
03
10
18
0:
09
1;
0=
1>
06
0;
17
04
15
0%
1$
#910000
1"
1#
12
13
1:
19
1;
#920000
0"
0#
0!
02
03
00
08
0:
09
0;
#930000
1"
1#
12
13
1:
19
1;
#940000
0"
0#
1!
02
03
10
18
0:
09
0;
1=
0>
16
1;
07
14
05
1%
0$
#950000
1"
1#
12
13
1:
19
0;
#960000
0"
0#
0!
02
03
00
08
0:
09
1;
#970000
1"
1#
12
13
1:
19
0;
#980000
0"
0#
1!
02
03
10
18
0:
09
1;
0=
1>
06
0;
17
04
15
0%
1$
#990000
1"
1#
12
13
1:
19
1;
