HalfAdder/simulation/qsim/HalfAdder.msim.vcd
$comment
	File created using the following command:
		vcd file HalfAdder.msim.vcd -direction
$end
$date
	Tue Feb 16 23:37:38 2021
$end
$version
	ModelSim Version 10.5b
$end
$timescale
	1ps
$end

$scope module halfadder_vhd_vec_tst $end
$var wire 1 ! A $end
$var wire 1 " B $end
$var wire 1 # Co $end
$var wire 1 $ S $end

$scope module i1 $end
$var wire 1 % gnd $end
$var wire 1 & vcc $end
$var wire 1 ' unknown $end
$var wire 1 ( devoe $end
$var wire 1 ) devclrn $end
$var wire 1 * devpor $end
$var wire 1 + ww_devoe $end
$var wire 1 , ww_devclrn $end
$var wire 1 - ww_devpor $end
$var wire 1 . ww_A $end
$var wire 1 / ww_B $end
$var wire 1 0 ww_S $end
$var wire 1 1 ww_Co $end
$var wire 1 2 \~QUARTUS_CREATED_ADC1~_CHSEL_bus\ [4] $end
$var wire 1 3 \~QUARTUS_CREATED_ADC1~_CHSEL_bus\ [3] $end
$var wire 1 4 \~QUARTUS_CREATED_ADC1~_CHSEL_bus\ [2] $end
$var wire 1 5 \~QUARTUS_CREATED_ADC1~_CHSEL_bus\ [1] $end
$var wire 1 6 \~QUARTUS_CREATED_ADC1~_CHSEL_bus\ [0] $end
$var wire 1 7 \~QUARTUS_CREATED_ADC2~_CHSEL_bus\ [4] $end
$var wire 1 8 \~QUARTUS_CREATED_ADC2~_CHSEL_bus\ [3] $end
$var wire 1 9 \~QUARTUS_CREATED_ADC2~_CHSEL_bus\ [2] $end
$var wire 1 : \~QUARTUS_CREATED_ADC2~_CHSEL_bus\ [1] $end
$var wire 1 ; \~QUARTUS_CREATED_ADC2~_CHSEL_bus\ [0] $end
$var wire 1 < \~QUARTUS_CREATED_GND~I_combout\ $end
$var wire 1 = \~QUARTUS_CREATED_UNVM~~busy\ $end
$var wire 1 > \~QUARTUS_CREATED_ADC1~~eoc\ $end
$var wire 1 ? \~QUARTUS_CREATED_ADC2~~eoc\ $end
$var wire 1 @ \S~output_o\ $end
$var wire 1 A \Co~output_o\ $end
$var wire 1 B \A~input_o\ $end
$var wire 1 C \B~input_o\ $end
$var wire 1 D \S~0_combout\ $end
$var wire 1 E \Co~0_combout\ $end
$upscope $end
$upscope $end
$enddefinitions $end
#0
$dumpvars
0!
0"
0#
0$
0%
1&
x'
1(
1)
1*
1+
1,
1-
0.
0/
00
01
0<
z=
z>
z?
0@
0A
0B
0C
0D
0E
02
03
04
05
06
07
08
09
0:
0;
$end
#20000
1!
1.
1B
1D
1@
10
1$
#40000
0!
1"
0.
1/
1C
0B
#60000
1!
1.
1B
0D
1E
1A
0@
11
00
1#
0$
#80000
0!
0"
0.
0/
0C
0B
0E
0A
01
0#
#100000
1!
1.
1B
1D
1@
10
1$
#120000
0!
1"
0.
1/
1C
0B
#140000
1!
1.
1B
0D
1E
1A
0@
11
00
1#
0$
#160000
0!
0"
0.
0/
0C
0B
0E
0A
01
0#
#180000
1!
1.
1B
1D
1@
10
1$
#200000
0!
1"
0.
1/
1C
0B
#220000
1!
1.
1B
0D
1E
1A
0@
11
00
1#
0$
#240000
0!
0"
0.
0/
0C
0B
0E
0A
01
0#
#260000
1!
1.
1B
1D
1@
10
1$
#280000
0!
1"
0.
1/
1C
0B
#300000
1!
1.
1B
0D
1E
1A
0@
11
00
1#
0$
#320000
0!
0"
0.
0/
0C
0B
0E
0A
01
0#
#340000
1!
1.
1B
1D
1@
10
1$
#360000
0!
1"
0.
1/
1C
0B
#380000
1!
1.
1B
0D
1E
1A
0@
11
00
1#
0$
#400000
0!
0"
0.
0/
0C
0B
0E
0A
01
0#
#420000
1!
1.
1B
1D
1@
10
1$
#440000
0!
1"
0.
1/
1C
0B
#460000
1!
1.
1B
0D
1E
1A
0@
11
00
1#
0$
#480000
0!
0"
0.
0/
0C
0B
0E
0A
01
0#
#500000
1!
1.
1B
1D
1@
10
1$
#520000
0!
1"
0.
1/
1C
0B
#540000
1!
1.
1B
0D
1E
1A
0@
11
00
1#
0$
#560000
0!
0"
0.
0/
0C
0B
0E
0A
01
0#
#580000
1!
1.
1B
1D
1@
10
1$
#600000
0!
1"
0.
1/
1C
0B
#620000
1!
1.
1B
0D
1E
1A
0@
11
00
1#
0$
#640000
0!
0"
0.
0/
0C
0B
0E
0A
01
0#
#660000
1!
1.
1B
1D
1@
10
1$
#680000
0!
1"
0.
1/
1C
0B
#700000
1!
1.
1B
0D
1E
1A
0@
11
00
1#
0$
#720000
0!
0"
0.
0/
0C
0B
0E
0A
01
0#
#740000
1!
1.
1B
1D
1@
10
1$
#760000
0!
1"
0.
1/
1C
0B
#780000
1!
1.
1B
0D
1E
1A
0@
11
00
1#
0$
#800000
0!
0"
0.
0/
0C
0B
0E
0A
01
0#
#820000
1!
1.
1B
1D
1@
10
1$
#840000
0!
1"
0.
1/
1C
0B
#860000
1!
1.
1B
0D
1E
1A
0@
11
00
1#
0$
#880000
0!
0"
0.
0/
0C
0B
0E
0A
01
0#
#900000
1!
1.
1B
1D
1@
10
1$
#920000
0!
1"
0.
1/
1C
0B
#940000
1!
1.
1B
0D
1E
1A
0@
11
00
1#
0$
#960000
0!
0"
0.
0/
0C
0B
0E
0A
01
0#
#980000
1!
1.
1B
1D
1@
10
1$
