DivisorFrecuenciaPorMitad/simulation/qsim/DivisorFrecuenciaPorMitad.msim.vcd
$comment
	File created using the following command:
		vcd file DivisorFrecuenciaPorMitad.msim.vcd -direction
$end
$date
	Fri Mar 12 04:11:46 2021
$end
$version
	ModelSim Version 10.5b
$end
$timescale
	1ps
$end

$scope module divisorfrecuenciapormitad_vhd_vec_tst $end
$var wire 1 ! CLK_ENTRADA $end
$var wire 1 " CLK_SALIDA $end
$var wire 1 # RST $end

$scope module i1 $end
$var wire 1 $ gnd $end
$var wire 1 % vcc $end
$var wire 1 & unknown $end
$var wire 1 ' devoe $end
$var wire 1 ( devclrn $end
$var wire 1 ) devpor $end
$var wire 1 * ww_devoe $end
$var wire 1 + ww_devclrn $end
$var wire 1 , ww_devpor $end
$var wire 1 - ww_CLK_ENTRADA $end
$var wire 1 . ww_RST $end
$var wire 1 / ww_CLK_SALIDA $end
$var wire 1 0 \~QUARTUS_CREATED_ADC1~_CHSEL_bus\ [4] $end
$var wire 1 1 \~QUARTUS_CREATED_ADC1~_CHSEL_bus\ [3] $end
$var wire 1 2 \~QUARTUS_CREATED_ADC1~_CHSEL_bus\ [2] $end
$var wire 1 3 \~QUARTUS_CREATED_ADC1~_CHSEL_bus\ [1] $end
$var wire 1 4 \~QUARTUS_CREATED_ADC1~_CHSEL_bus\ [0] $end
$var wire 1 5 \~QUARTUS_CREATED_ADC2~_CHSEL_bus\ [4] $end
$var wire 1 6 \~QUARTUS_CREATED_ADC2~_CHSEL_bus\ [3] $end
$var wire 1 7 \~QUARTUS_CREATED_ADC2~_CHSEL_bus\ [2] $end
$var wire 1 8 \~QUARTUS_CREATED_ADC2~_CHSEL_bus\ [1] $end
$var wire 1 9 \~QUARTUS_CREATED_ADC2~_CHSEL_bus\ [0] $end
$var wire 1 : \~QUARTUS_CREATED_GND~I_combout\ $end
$var wire 1 ; \~QUARTUS_CREATED_UNVM~~busy\ $end
$var wire 1 < \~QUARTUS_CREATED_ADC1~~eoc\ $end
$var wire 1 = \~QUARTUS_CREATED_ADC2~~eoc\ $end
$var wire 1 > \CLK_SALIDA~output_o\ $end
$var wire 1 ? \CLK_ENTRADA~input_o\ $end
$var wire 1 @ \FF0|C~0_combout\ $end
$var wire 1 A \RST~input_o\ $end
$var wire 1 B \FF0|C~q\ $end
$upscope $end
$upscope $end
$enddefinitions $end
#0
$dumpvars
0!
0"
0#
0$
1%
x&
1'
1(
1)
1*
1+
1,
0-
0.
0/
0:
z;
z<
z=
0>
0?
1@
0A
0B
00
01
02
03
04
05
06
07
08
09
$end
#20000
1!
1-
1?
#30000
1#
1.
1A
#40000
0!
0-
0?
#60000
1!
1-
1?
1B
1>
0@
1/
1"
#80000
0!
0-
0?
#100000
1!
1-
1?
0B
0>
1@
0/
0"
#120000
0!
0-
0?
#140000
1!
1-
1?
1B
1>
0@
1/
1"
#160000
0!
0-
0?
#180000
1!
1-
1?
0B
0>
1@
0/
0"
#200000
0!
0-
0?
#220000
1!
1-
1?
1B
1>
0@
1/
1"
#240000
0!
0-
0?
#260000
1!
1-
1?
0B
0>
1@
0/
0"
#280000
0!
0-
0?
#300000
1!
1-
1?
1B
1>
0@
1/
1"
#320000
0!
0-
0?
#340000
1!
1-
1?
0B
0>
1@
0/
0"
#360000
0!
0-
0?
#380000
1!
1-
1?
1B
1>
0@
1/
1"
#400000
0!
0-
0?
#420000
1!
1-
1?
0B
0>
1@
0/
0"
#440000
0!
0-
0?
#460000
1!
1-
1?
1B
1>
0@
1/
1"
#480000
0!
0-
0?
#500000
1!
1-
1?
0B
0>
1@
0/
0"
#520000
0!
0-
0?
#540000
1!
1-
1?
1B
1>
0@
1/
1"
#550000
0#
0.
0A
0B
0>
1@
0/
0"
#560000
0!
0-
0?
#580000
1!
1-
1?
#600000
0!
0-
0?
#610000
1#
1.
1A
#620000
1!
1-
1?
1B
1>
0@
1/
1"
#640000
0!
0-
0?
#660000
1!
1-
1?
0B
0>
1@
0/
0"
#680000
0!
0-
0?
#700000
1!
1-
1?
1B
1>
0@
1/
1"
#720000
0!
0-
0?
#740000
1!
1-
1?
0B
0>
1@
0/
0"
#760000
0!
0-
0?
#780000
1!
1-
1?
1B
1>
0@
1/
1"
#800000
0!
0-
0?
#820000
1!
1-
1?
0B
0>
1@
0/
0"
#840000
0!
0-
0?
#860000
1!
1-
1?
1B
1>
0@
1/
1"
#880000
0!
0-
0?
#900000
1!
1-
1?
0B
0>
1@
0/
0"
#920000
0!
0-
0?
#940000
1!
1-
1?
1B
1>
0@
1/
1"
#960000
0!
0-
0?
#980000
1!
1-
1?
0B
0>
1@
0/
0"
