ContadorMod800/simulation/qsim/ContadorMod800.msim.vcd
$comment
	File created using the following command:
		vcd file ContadorMod800.msim.vcd -direction
$end
$date
	Fri Mar 12 03:25:42 2021
$end
$version
	ModelSim Version 10.5b
$end
$timescale
	1ps
$end

$scope module contadormod800_vhd_vec_tst $end
$var wire 1 ! CLK $end
$var wire 1 " Cout $end
$var wire 1 # CUENTA [9] $end
$var wire 1 $ CUENTA [8] $end
$var wire 1 % CUENTA [7] $end
$var wire 1 & CUENTA [6] $end
$var wire 1 ' CUENTA [5] $end
$var wire 1 ( CUENTA [4] $end
$var wire 1 ) CUENTA [3] $end
$var wire 1 * CUENTA [2] $end
$var wire 1 + CUENTA [1] $end
$var wire 1 , CUENTA [0] $end
$var wire 1 - RST $end

$scope module i1 $end
$var wire 1 . gnd $end
$var wire 1 / vcc $end
$var wire 1 0 unknown $end
$var wire 1 1 devoe $end
$var wire 1 2 devclrn $end
$var wire 1 3 devpor $end
$var wire 1 4 ww_devoe $end
$var wire 1 5 ww_devclrn $end
$var wire 1 6 ww_devpor $end
$var wire 1 7 ww_CLK $end
$var wire 1 8 ww_RST $end
$var wire 1 9 ww_CUENTA [9] $end
$var wire 1 : ww_CUENTA [8] $end
$var wire 1 ; ww_CUENTA [7] $end
$var wire 1 < ww_CUENTA [6] $end
$var wire 1 = ww_CUENTA [5] $end
$var wire 1 > ww_CUENTA [4] $end
$var wire 1 ? ww_CUENTA [3] $end
$var wire 1 @ ww_CUENTA [2] $end
$var wire 1 A ww_CUENTA [1] $end
$var wire 1 B ww_CUENTA [0] $end
$var wire 1 C ww_Cout $end
$var wire 1 D \CUENTA[0]~output_o\ $end
$var wire 1 E \CUENTA[1]~output_o\ $end
$var wire 1 F \CUENTA[2]~output_o\ $end
$var wire 1 G \CUENTA[3]~output_o\ $end
$var wire 1 H \CUENTA[4]~output_o\ $end
$var wire 1 I \CUENTA[5]~output_o\ $end
$var wire 1 J \CUENTA[6]~output_o\ $end
$var wire 1 K \CUENTA[7]~output_o\ $end
$var wire 1 L \CUENTA[8]~output_o\ $end
$var wire 1 M \CUENTA[9]~output_o\ $end
$var wire 1 N \Cout~output_o\ $end
$var wire 1 O \CLK~input_o\ $end
$var wire 1 P \I0|Q[0]~10_combout\ $end
$var wire 1 Q \I0|Q[1]~0_combout\ $end
$var wire 1 R \I0|Q[2]~1_combout\ $end
$var wire 1 S \I0|Q[3]~2_combout\ $end
$var wire 1 T \Cout~0_combout\ $end
$var wire 1 U \I0|Q[4]~3_combout\ $end
$var wire 1 V \I0|Q[5]~4_combout\ $end
$var wire 1 W \I0|Q[6]~5_combout\ $end
$var wire 1 X \I0|I0|I6|Co~combout\ $end
$var wire 1 Y \I0|Q[7]~6_combout\ $end
$var wire 1 Z \I0|Q[8]~7_combout\ $end
$var wire 1 [ \I0|Q[8]~8_combout\ $end
$var wire 1 \ \I0|Q[9]~9_combout\ $end
$var wire 1 ] \Equal0~0_combout\ $end
$var wire 1 ^ \Equal0~1_combout\ $end
$var wire 1 _ \Equal0~2_combout\ $end
$var wire 1 ` \RST~input_o\ $end
$var wire 1 a \RST_MOD800~0_combout\ $end
$var wire 1 b \Cout~1_combout\ $end
$var wire 1 c \Cout~2_combout\ $end
$var wire 1 d \I0|Q\ [9] $end
$var wire 1 e \I0|Q\ [8] $end
$var wire 1 f \I0|Q\ [7] $end
$var wire 1 g \I0|Q\ [6] $end
$var wire 1 h \I0|Q\ [5] $end
$var wire 1 i \I0|Q\ [4] $end
$var wire 1 j \I0|Q\ [3] $end
$var wire 1 k \I0|Q\ [2] $end
$var wire 1 l \I0|Q\ [1] $end
$var wire 1 m \I0|Q\ [0] $end
$var wire 1 n \ALT_INV_RST_MOD800~0_combout\ $end
$upscope $end
$upscope $end
$enddefinitions $end
#0
$dumpvars
0!
0"
0-
0.
1/
x0
11
12
13
14
15
16
07
08
0C
0D
0E
0F
0G
0H
0I
0J
0K
0L
0M
0N
0O
1P
0Q
0R
0S
0T
0U
0V
0W
0X
0Y
1Z
0[
0\
0]
0^
1_
0`
1a
0b
0c
0n
09
0:
0;
0<
0=
0>
0?
0@
0A
0B
0d
0e
0f
0g
0h
0i
0j
0k
0l
0m
0#
0$
0%
0&
0'
0(
0)
0*
0+
0,
$end
#500
1!
17
1O
#1000
0!
07
0O
#1500
1!
17
1O
#2000
0!
07
0O
#2500
1!
17
1O
#3000
0!
07
0O
#3500
1!
17
1O
#4000
0!
07
0O
#4500
1!
17
1O
#5000
0!
07
0O
#5500
1!
17
1O
#6000
0!
07
0O
#6500
1!
17
1O
#7000
0!
07
0O
#7500
1!
17
1O
#8000
0!
07
0O
#8500
1!
17
1O
#9000
0!
07
0O
#9500
1!
17
1O
#10000
0!
07
0O
#10500
1!
17
1O
#11000
0!
07
0O
#11500
1!
17
1O
#12000
0!
07
0O
#12500
1!
17
1O
#13000
0!
07
0O
#13500
1!
17
1O
#14000
0!
07
0O
#14500
1!
17
1O
#15000
0!
07
0O
#15500
1!
17
1O
#16000
0!
07
0O
#16500
1!
17
1O
#17000
0!
07
0O
#17500
1!
17
1O
#18000
0!
07
0O
#18500
1!
17
1O
#19000
0!
07
0O
#19500
1!
17
1O
#20000
0!
1-
07
18
1`
0O
0a
1b
1n
#20500
1!
17
1O
1m
1D
0P
1Q
0_
1B
1,
#21000
0!
07
0O
#21500
1!
17
1O
1l
0m
0D
1E
1P
0B
1A
0,
1+
#22000
0!
07
0O
#22500
1!
17
1O
1m
1D
0P
0Q
1R
1B
1,
#23000
0!
07
0O
#23500
1!
17
1O
0l
1k
0m
0D
1F
0E
1P
1_
0B
1@
0A
0,
0+
1*
#24000
0!
07
0O
#24500
1!
17
1O
1m
1D
0P
1Q
0_
1B
1,
#25000
0!
07
0O
#25500
1!
17
1O
1l
0m
0D
1E
1P
0B
1A
0,
1+
#26000
0!
07
0O
#26500
1!
17
1O
1m
1D
0P
0Q
0R
1S
1B
1,
#27000
0!
07
0O
#27500
1!
17
1O
0l
0k
1j
0m
0D
1G
0F
0E
1P
1_
0B
1?
0@
0A
0,
0+
0*
1)
#28000
0!
07
0O
#28500
1!
17
1O
1m
1D
0P
1Q
0_
1B
1,
#29000
0!
07
0O
#29500
1!
17
1O
1l
0m
0D
1E
1P
0B
1A
0,
1+
#30000
0!
07
0O
#30500
1!
17
1O
1m
1D
0P
0Q
1R
1B
1,
#31000
0!
07
0O
#31500
1!
17
1O
0l
1k
0m
0D
1F
0E
1P
1_
0B
1@
0A
0,
0+
1*
#32000
0!
07
0O
#32500
1!
17
1O
1m
1D
0P
1Q
0_
1B
1,
#33000
0!
07
0O
#33500
1!
17
1O
1l
0m
0D
1E
1P
0B
1A
0,
1+
#34000
0!
07
0O
#34500
1!
17
1O
1m
1D
0P
0Q
0R
0S
1T
1B
1U
1,
#35000
0!
07
0O
#35500
1!
17
1O
0l
0k
0j
1i
0m
0D
1H
0G
0F
0E
1P
0U
1V
0T
1_
0B
1>
0?
0@
0A
1U
0V
0,
0+
0*
0)
1(
#36000
0!
07
0O
#36500
1!
17
1O
1m
1D
0P
1Q
0_
1B
1,
#37000
0!
07
0O
#37500
1!
17
1O
1l
0m
0D
1E
1P
0B
1A
0,
1+
#38000
0!
07
0O
#38500
1!
17
1O
1m
1D
0P
0Q
1R
1B
1,
#39000
0!
07
0O
#39500
1!
17
1O
0l
1k
0m
0D
1F
0E
1P
1_
0B
1@
0A
0,
0+
1*
#40000
0!
07
0O
#40500
1!
17
1O
1m
1D
0P
1Q
0_
1B
1,
#41000
0!
07
0O
#41500
1!
17
1O
1l
0m
0D
1E
1P
0B
1A
0,
1+
#42000
0!
07
0O
#42500
1!
17
1O
1m
1D
0P
0Q
0R
1S
1B
1,
#43000
0!
07
0O
#43500
1!
17
1O
0l
0k
1j
0m
0D
1G
0F
0E
1P
1_
0B
1?
0@
0A
0,
0+
0*
1)
#44000
0!
07
0O
#44500
1!
17
1O
1m
1D
0P
1Q
0_
1B
1,
#45000
0!
07
0O
#45500
1!
17
1O
1l
0m
0D
1E
1P
0B
1A
0,
1+
#46000
0!
07
0O
#46500
1!
17
1O
1m
1D
0P
0Q
1R
1B
1,
#47000
0!
07
0O
#47500
1!
17
1O
0l
1k
0m
0D
1F
0E
1P
1_
0B
1@
0A
0,
0+
1*
#48000
0!
07
0O
#48500
1!
17
1O
1m
1D
0P
1Q
0_
1B
1,
#49000
0!
07
0O
#49500
1!
17
1O
1l
0m
0D
1E
1P
0B
1A
0,
1+
#50000
0!
07
0O
#50500
1!
17
1O
1m
1D
0P
0Q
0R
0S
1T
1B
0U
1V
1,
#51000
0!
07
0O
#51500
1!
17
1O
0l
0k
0j
0i
1h
0m
0D
1I
0H
0G
0F
0E
1P
0b
1U
1^
0T
1_
0B
1=
0>
0?
0@
0A
0U
0,
0+
0*
0)
0(
1'
#52000
0!
07
0O
#52500
1!
17
1O
1m
1D
0P
1Q
0_
1B
1,
#53000
0!
07
0O
#53500
1!
17
1O
1l
0m
0D
1E
1P
0B
1A
0,
1+
#54000
0!
07
0O
#54500
1!
17
1O
1m
1D
0P
0Q
1R
1B
1,
#55000
0!
07
0O
#55500
1!
17
1O
0l
1k
0m
0D
1F
0E
1P
0^
1_
0B
1@
0A
0,
0+
1*
#56000
0!
07
0O
#56500
1!
17
1O
1m
1D
0P
1Q
0_
1B
1,
#57000
0!
07
0O
#57500
1!
17
1O
1l
0m
0D
1E
1P
0B
1A
0,
1+
#58000
0!
07
0O
#58500
1!
17
1O
1m
1D
0P
0Q
0R
1S
1B
1,
#59000
0!
07
0O
#59500
1!
17
1O
0l
0k
1j
0m
0D
1G
0F
0E
1P
1_
0B
1?
0@
0A
0,
0+
0*
1)
#60000
0!
07
0O
#60500
1!
17
1O
1m
1D
0P
1Q
0_
1B
1,
#61000
0!
07
0O
#61500
1!
17
1O
1l
0m
0D
1E
1P
0B
1A
0,
1+
#62000
0!
07
0O
#62500
1!
17
1O
1m
1D
0P
0Q
1R
1B
1,
#63000
0!
07
0O
#63500
1!
17
1O
0l
1k
0m
0D
1F
0E
1P
1_
0B
1@
0A
0,
0+
1*
#64000
0!
07
0O
#64500
1!
17
1O
1m
1D
0P
1Q
0_
1B
1,
#65000
0!
07
0O
#65500
1!
17
1O
1l
0m
0D
1E
1P
0B
1A
0,
1+
#66000
0!
07
0O
#66500
1!
17
1O
1m
1D
0P
0Q
0R
0S
1T
1B
1U
1,
#67000
0!
07
0O
#67500
1!
17
1O
0l
0k
0j
1i
0m
0D
1H
0G
0F
0E
1P
0U
0V
1W
0T
1_
0B
1>
0?
0@
0A
1U
1V
0W
0,
0+
0*
0)
1(
#68000
0!
07
0O
#68500
1!
17
1O
1m
1D
0P
1Q
0_
1B
1,
#69000
0!
07
0O
#69500
1!
17
1O
1l
0m
0D
1E
1P
0B
1A
0,
1+
#70000
0!
07
0O
#70500
1!
17
1O
1m
1D
0P
0Q
1R
1B
1,
#71000
0!
07
0O
#71500
1!
17
1O
0l
1k
0m
0D
1F
0E
1P
1_
0B
1@
0A
0,
0+
1*
#72000
0!
07
0O
#72500
1!
17
1O
1m
1D
0P
1Q
0_
1B
1,
#73000
0!
07
0O
#73500
1!
17
1O
1l
0m
0D
1E
1P
0B
1A
0,
1+
#74000
0!
07
0O
#74500
1!
17
1O
1m
1D
0P
0Q
0R
1S
1B
1,
#75000
0!
07
0O
#75500
1!
17
1O
0l
0k
1j
0m
0D
1G
0F
0E
1P
1_
0B
1?
0@
0A
0,
0+
0*
1)
#76000
0!
07
0O
#76500
1!
17
1O
1m
1D
0P
1Q
0_
1B
1,
#77000
0!
07
0O
#77500
1!
17
1O
1l
0m
0D
1E
1P
0B
1A
0,
1+
#78000
0!
07
0O
#78500
1!
17
1O
1m
1D
0P
0Q
1R
1B
1,
#79000
0!
07
0O
#79500
1!
17
1O
0l
1k
0m
0D
1F
0E
1P
1_
0B
1@
0A
0,
0+
1*
#80000
0!
07
0O
#80500
1!
17
1O
1m
1D
0P
1Q
0_
1B
1,
#81000
0!
07
0O
#81500
1!
17
1O
1l
0m
0D
1E
1P
0B
1A
0,
1+
#82000
0!
07
0O
#82500
1!
17
1O
1m
1D
0P
0Q
0R
0S
1T
1B
0U
0V
1W
1,
#83000
0!
07
0O
#83500
1!
17
1O
0l
0k
0j
0i
0h
1g
0m
0D
1J
0I
0H
0G
0F
0E
1P
1b
1U
0T
1_
0B
1<
0=
0>
0?
0@
0A
0U
0,
0+
0*
0)
0(
0'
1&
#84000
0!
07
0O
#84500
1!
17
1O
1m
1D
0P
1Q
0_
1B
1,
#85000
0!
07
0O
#85500
1!
17
1O
1l
0m
0D
1E
1P
0B
1A
0,
1+
#86000
0!
07
0O
#86500
1!
17
1O
1m
1D
0P
0Q
1R
1B
1,
#87000
0!
07
0O
#87500
1!
17
1O
0l
1k
0m
0D
1F
0E
1P
1_
0B
1@
0A
0,
0+
1*
#88000
0!
07
0O
#88500
1!
17
1O
1m
1D
0P
1Q
0_
1B
1,
#89000
0!
07
0O
#89500
1!
17
1O
1l
0m
0D
1E
1P
0B
1A
0,
1+
#90000
0!
07
0O
#90500
1!
17
1O
1m
1D
0P
0Q
0R
1S
1B
1,
#91000
0!
07
0O
#91500
1!
17
1O
0l
0k
1j
0m
0D
1G
0F
0E
1P
1_
0B
1?
0@
0A
0,
0+
0*
1)
#92000
0!
07
0O
#92500
1!
17
1O
1m
1D
0P
1Q
0_
1B
1,
#93000
0!
07
0O
#93500
1!
17
1O
1l
0m
0D
1E
1P
0B
1A
0,
1+
#94000
0!
07
0O
#94500
1!
17
1O
1m
1D
0P
0Q
1R
1B
1,
#95000
0!
07
0O
#95500
1!
17
1O
0l
1k
0m
0D
1F
0E
1P
1_
0B
1@
0A
0,
0+
1*
#96000
0!
07
0O
#96500
1!
17
1O
1m
1D
0P
1Q
0_
1B
1,
#97000
0!
07
0O
#97500
1!
17
1O
1l
0m
0D
1E
1P
0B
1A
0,
1+
#98000
0!
07
0O
#98500
1!
17
1O
1m
1D
0P
0Q
0R
0S
1T
1B
1U
1,
#99000
0!
07
0O
#99500
1!
17
1O
0l
0k
0j
1i
0m
0D
1H
0G
0F
0E
1P
0U
1V
0T
1_
0B
1>
0?
0@
0A
1U
0V
0,
0+
0*
0)
1(
#100000
0!
07
0O
#100500
1!
17
1O
1m
1D
0P
1Q
0_
1B
1,
#101000
0!
07
0O
#101500
1!
17
1O
1l
0m
0D
1E
1P
0B
1A
0,
1+
#102000
0!
07
0O
#102500
1!
17
1O
1m
1D
0P
0Q
1R
1B
1,
#103000
0!
07
0O
#103500
1!
17
1O
0l
1k
0m
0D
1F
0E
1P
1_
0B
1@
0A
0,
0+
1*
#104000
0!
07
0O
#104500
1!
17
1O
1m
1D
0P
1Q
0_
1B
1,
#105000
0!
07
0O
#105500
1!
17
1O
1l
0m
0D
1E
1P
0B
1A
0,
1+
#106000
0!
07
0O
#106500
1!
17
1O
1m
1D
0P
0Q
0R
1S
1B
1,
#107000
0!
07
0O
#107500
1!
17
1O
0l
0k
1j
0m
0D
1G
0F
0E
1P
1_
0B
1?
0@
0A
0,
0+
0*
1)
#108000
0!
07
0O
#108500
1!
17
1O
1m
1D
0P
1Q
0_
1B
1,
#109000
0!
07
0O
#109500
1!
17
1O
1l
0m
0D
1E
1P
0B
1A
0,
1+
#110000
0!
07
0O
#110500
1!
17
1O
1m
1D
0P
0Q
1R
1B
1,
#111000
0!
07
0O
#111500
1!
17
1O
0l
1k
0m
0D
1F
0E
1P
1_
0B
1@
0A
0,
0+
1*
#112000
0!
07
0O
#112500
1!
17
1O
1m
1D
0P
1Q
0_
1B
1,
#113000
0!
07
0O
#113500
1!
17
1O
1l
0m
0D
1E
1P
0B
1A
0,
1+
#114000
0!
07
0O
#114500
1!
17
1O
1m
1D
0P
0Q
0R
0S
1T
1B
0U
1V
1,
#115000
0!
07
0O
#115500
1!
17
1O
0l
0k
0j
0i
1h
0m
0D
1I
0H
0G
0F
0E
1P
0b
1U
1^
0T
1_
0B
1=
0>
0?
0@
0A
0U
0,
0+
0*
0)
0(
1'
#116000
0!
07
0O
#116500
1!
17
1O
1m
1D
0P
1Q
0_
1B
1,
#117000
0!
07
0O
#117500
1!
17
1O
1l
0m
0D
1E
1P
0B
1A
0,
1+
#118000
0!
07
0O
#118500
1!
17
1O
1m
1D
0P
0Q
1R
1B
1,
#119000
0!
07
0O
#119500
1!
17
1O
0l
1k
0m
0D
1F
0E
1P
0^
1_
0B
1@
0A
0,
0+
1*
#120000
0!
07
0O
#120500
1!
17
1O
1m
1D
0P
1Q
0_
1B
1,
#121000
0!
07
0O
#121500
1!
17
1O
1l
0m
0D
1E
1P
0B
1A
0,
1+
#122000
0!
07
0O
#122500
1!
17
1O
1m
1D
0P
0Q
0R
1S
1B
1,
#123000
0!
07
0O
#123500
1!
17
1O
0l
0k
1j
0m
0D
1G
0F
0E
1P
1_
0B
1?
0@
0A
0,
0+
0*
1)
#124000
0!
07
0O
#124500
1!
17
1O
1m
1D
0P
1Q
0_
1B
1,
#125000
0!
07
0O
#125500
1!
17
1O
1l
0m
0D
1E
1P
0B
1A
0,
1+
#126000
0!
07
0O
#126500
1!
17
1O
1m
1D
0P
0Q
1R
1B
1,
#127000
0!
07
0O
#127500
1!
17
1O
0l
1k
0m
0D
1F
0E
1P
1_
0B
1@
0A
0,
0+
1*
#128000
0!
07
0O
#128500
1!
17
1O
1m
1D
0P
1Q
0_
1B
1,
#129000
0!
07
0O
#129500
1!
17
1O
1l
0m
0D
1E
1P
0B
1A
0,
1+
#130000
0!
07
0O
#130500
1!
17
1O
1m
1D
0P
0Q
0R
0S
1T
1B
1U
1,
#131000
0!
07
0O
#131500
1!
17
1O
0l
0k
0j
1i
0m
0D
1H
0G
0F
0E
1P
0U
0V
0W
1X
0Z
0T
1_
0B
1>
0?
0@
0A
1U
1V
1W
0X
1Y
0,
0+
0*
0)
1(
0Y
#132000
0!
07
0O
#132500
1!
17
1O
1m
1D
0P
1Q
0_
1B
1,
#133000
0!
07
0O
#133500
1!
17
1O
1l
0m
0D
1E
1P
0B
1A
0,
1+
#134000
0!
07
0O
#134500
1!
17
1O
1m
1D
0P
0Q
1R
1B
1,
#135000
0!
07
0O
#135500
1!
17
1O
0l
1k
0m
0D
1F
0E
1P
1_
0B
1@
0A
0,
0+
1*
#136000
0!
07
0O
#136500
1!
17
1O
1m
1D
0P
1Q
0_
1B
1,
#137000
0!
07
0O
#137500
1!
17
1O
1l
0m
0D
1E
1P
0B
1A
0,
1+
#138000
0!
07
0O
#138500
1!
17
1O
1m
1D
0P
0Q
0R
1S
1B
1,
#139000
0!
07
0O
#139500
1!
17
1O
0l
0k
1j
0m
0D
1G
0F
0E
1P
1_
0B
1?
0@
0A
0,
0+
0*
1)
#140000
0!
07
0O
#140500
1!
17
1O
1m
1D
0P
1Q
0_
1B
1,
#141000
0!
07
0O
#141500
1!
17
1O
1l
0m
0D
1E
1P
0B
1A
0,
1+
#142000
0!
07
0O
#142500
1!
17
1O
1m
1D
0P
0Q
1R
1B
1,
#143000
0!
07
0O
#143500
1!
17
1O
0l
1k
0m
0D
1F
0E
1P
1_
0B
1@
0A
0,
0+
1*
#144000
0!
07
0O
#144500
1!
17
1O
1m
1D
0P
1Q
0_
1B
1,
#145000
0!
07
0O
#145500
1!
17
1O
1l
0m
0D
1E
1P
0B
1A
0,
1+
#146000
0!
07
0O
#146500
1!
17
1O
1m
1D
0P
0Q
0R
0S
1T
1B
0U
0V
0W
1X
1,
1Y
#147000
0!
07
0O
#147500
1!
17
1O
0l
0k
0j
0i
0h
0g
1f
0m
0D
1K
0J
0I
0H
0G
0F
0E
1P
0Y
1[
1b
1U
0X
1Z
0T
1_
0B
1;
0<
0=
0>
0?
0@
0A
0U
0[
1Y
0,
0+
0*
0)
0(
0'
0&
1%
#148000
0!
07
0O
#148500
1!
17
1O
1m
1D
0P
1Q
0_
1B
1,
#149000
0!
07
0O
#149500
1!
17
1O
1l
0m
0D
1E
1P
0B
1A
0,
1+
#150000
0!
07
0O
#150500
1!
17
1O
1m
1D
0P
0Q
1R
1B
1,
#151000
0!
07
0O
#151500
1!
17
1O
0l
1k
0m
0D
1F
0E
1P
1_
0B
1@
0A
0,
0+
1*
#152000
0!
07
0O
#152500
1!
17
1O
1m
1D
0P
1Q
0_
1B
1,
#153000
0!
07
0O
#153500
1!
17
1O
1l
0m
0D
1E
1P
0B
1A
0,
1+
#154000
0!
07
0O
#154500
1!
17
1O
1m
1D
0P
0Q
0R
1S
1B
1,
#155000
0!
07
0O
#155500
1!
17
1O
0l
0k
1j
0m
0D
1G
0F
0E
1P
1_
0B
1?
0@
0A
0,
0+
0*
1)
#156000
0!
07
0O
#156500
1!
17
1O
1m
1D
0P
1Q
0_
1B
1,
#157000
0!
07
0O
#157500
1!
17
1O
1l
0m
0D
1E
1P
0B
1A
0,
1+
#158000
0!
07
0O
#158500
1!
17
1O
1m
1D
0P
0Q
1R
1B
1,
#159000
0!
07
0O
#159500
1!
17
1O
0l
1k
0m
0D
1F
0E
1P
1_
0B
1@
0A
0,
0+
1*
#160000
0!
07
0O
#160500
1!
17
1O
1m
1D
0P
1Q
0_
1B
1,
#161000
0!
07
0O
#161500
1!
17
1O
1l
0m
0D
1E
1P
0B
1A
0,
1+
#162000
0!
07
0O
#162500
1!
17
1O
1m
1D
0P
0Q
0R
0S
1T
1B
1U
1,
#163000
0!
07
0O
#163500
1!
17
1O
0l
0k
0j
1i
0m
0D
1H
0G
0F
0E
1P
0U
1V
0T
1_
0B
1>
0?
0@
0A
1U
0V
0,
0+
0*
0)
1(
#164000
0!
07
0O
#164500
1!
17
1O
1m
1D
0P
1Q
0_
1B
1,
#165000
0!
07
0O
#165500
1!
17
1O
1l
0m
0D
1E
1P
0B
1A
0,
1+
#166000
0!
07
0O
#166500
1!
17
1O
1m
1D
0P
0Q
1R
1B
1,
#167000
0!
07
0O
#167500
1!
17
1O
0l
1k
0m
0D
1F
0E
1P
1_
0B
1@
0A
0,
0+
1*
#168000
0!
07
0O
#168500
1!
17
1O
1m
1D
0P
1Q
0_
1B
1,
#169000
0!
07
0O
#169500
1!
17
1O
1l
0m
0D
1E
1P
0B
1A
0,
1+
#170000
0!
07
0O
#170500
1!
17
1O
1m
1D
0P
0Q
0R
1S
1B
1,
#171000
0!
07
0O
#171500
1!
17
1O
0l
0k
1j
0m
0D
1G
0F
0E
1P
1_
0B
1?
0@
0A
0,
0+
0*
1)
#172000
0!
07
0O
#172500
1!
17
1O
1m
1D
0P
1Q
0_
1B
1,
#173000
0!
07
0O
#173500
1!
17
1O
1l
0m
0D
1E
1P
0B
1A
0,
1+
#174000
0!
07
0O
#174500
1!
17
1O
1m
1D
0P
0Q
1R
1B
1,
#175000
0!
07
0O
#175500
1!
17
1O
0l
1k
0m
0D
1F
0E
1P
1_
0B
1@
0A
0,
0+
1*
#176000
0!
07
0O
#176500
1!
17
1O
1m
1D
0P
1Q
0_
1B
1,
#177000
0!
07
0O
#177500
1!
17
1O
1l
0m
0D
1E
1P
0B
1A
0,
1+
#178000
0!
07
0O
#178500
1!
17
1O
1m
1D
0P
0Q
0R
0S
1T
1B
0U
1V
1,
#179000
0!
07
0O
#179500
1!
17
1O
0l
0k
0j
0i
1h
0m
0D
1I
0H
0G
0F
0E
1P
0b
1U
1^
0T
1_
0B
1=
0>
0?
0@
0A
0U
0,
0+
0*
0)
0(
1'
#180000
0!
07
0O
#180500
1!
17
1O
1m
1D
0P
1Q
0_
1B
1,
#181000
0!
07
0O
#181500
1!
17
1O
1l
0m
0D
1E
1P
0B
1A
0,
1+
#182000
0!
07
0O
#182500
1!
17
1O
1m
1D
0P
0Q
1R
1B
1,
#183000
0!
07
0O
#183500
1!
17
1O
0l
1k
0m
0D
1F
0E
1P
0^
1_
0B
1@
0A
0,
0+
1*
#184000
0!
07
0O
#184500
1!
17
1O
1m
1D
0P
1Q
0_
1B
1,
#185000
0!
07
0O
#185500
1!
17
1O
1l
0m
0D
1E
1P
0B
1A
0,
1+
#186000
0!
07
0O
#186500
1!
17
1O
1m
1D
0P
0Q
0R
1S
1B
1,
#187000
0!
07
0O
#187500
1!
17
1O
0l
0k
1j
0m
0D
1G
0F
0E
1P
1_
0B
1?
0@
0A
0,
0+
0*
1)
#188000
0!
07
0O
#188500
1!
17
1O
1m
1D
0P
1Q
0_
1B
1,
#189000
0!
07
0O
#189500
1!
17
1O
1l
0m
0D
1E
1P
0B
1A
0,
1+
#190000
0!
07
0O
#190500
1!
17
1O
1m
1D
0P
0Q
1R
1B
1,
#191000
0!
07
0O
#191500
1!
17
1O
0l
1k
0m
0D
1F
0E
1P
1_
0B
1@
0A
0,
0+
1*
#192000
0!
07
0O
#192500
1!
17
1O
1m
1D
0P
1Q
0_
1B
1,
#193000
0!
07
0O
#193500
1!
17
1O
1l
0m
0D
1E
1P
0B
1A
0,
1+
#194000
0!
07
0O
#194500
1!
17
1O
1m
1D
0P
0Q
0R
0S
1T
1B
1U
1,
#195000
0!
07
0O
#195500
1!
17
1O
0l
0k
0j
1i
0m
0D
1H
0G
0F
0E
1P
0U
0V
1W
0T
1_
0B
1>
0?
0@
0A
1U
1V
0W
0,
0+
0*
0)
1(
#196000
0!
07
0O
#196500
1!
17
1O
1m
1D
0P
1Q
0_
1B
1,
#197000
0!
07
0O
#197500
1!
17
1O
1l
0m
0D
1E
1P
0B
1A
0,
1+
#198000
0!
07
0O
#198500
1!
17
1O
1m
1D
0P
0Q
1R
1B
1,
#199000
0!
07
0O
#199500
1!
17
1O
0l
1k
0m
0D
1F
0E
1P
1_
0B
1@
0A
0,
0+
1*
#200000
0!
07
0O
#200500
1!
17
1O
1m
1D
0P
1Q
0_
1B
1,
#201000
0!
07
0O
#201500
1!
17
1O
1l
0m
0D
1E
1P
0B
1A
0,
1+
#202000
0!
07
0O
#202500
1!
17
1O
1m
1D
0P
0Q
0R
1S
1B
1,
#203000
0!
07
0O
#203500
1!
17
1O
0l
0k
1j
0m
0D
1G
0F
0E
1P
1_
0B
1?
0@
0A
0,
0+
0*
1)
#204000
0!
07
0O
#204500
1!
17
1O
1m
1D
0P
1Q
0_
1B
1,
#205000
0!
07
0O
#205500
1!
17
1O
1l
0m
0D
1E
1P
0B
1A
0,
1+
#206000
0!
07
0O
#206500
1!
17
1O
1m
1D
0P
0Q
1R
1B
1,
#207000
0!
07
0O
#207500
1!
17
1O
0l
1k
0m
0D
1F
0E
1P
1_
0B
1@
0A
0,
0+
1*
#208000
0!
07
0O
#208500
1!
17
1O
1m
1D
0P
1Q
0_
1B
1,
#209000
0!
07
0O
#209500
1!
17
1O
1l
0m
0D
1E
1P
0B
1A
0,
1+
#210000
0!
07
0O
#210500
1!
17
1O
1m
1D
0P
0Q
0R
0S
1T
1B
0U
0V
1W
1,
#211000
0!
07
0O
#211500
1!
17
1O
0l
0k
0j
0i
0h
1g
0m
0D
1J
0I
0H
0G
0F
0E
1P
1b
1U
0T
1_
0B
1<
0=
0>
0?
0@
0A
0U
0,
0+
0*
0)
0(
0'
1&
#212000
0!
07
0O
#212500
1!
17
1O
1m
1D
0P
1Q
0_
1B
1,
#213000
0!
07
0O
#213500
1!
17
1O
1l
0m
0D
1E
1P
0B
1A
0,
1+
#214000
0!
07
0O
#214500
1!
17
1O
1m
1D
0P
0Q
1R
1B
1,
#215000
0!
07
0O
#215500
1!
17
1O
0l
1k
0m
0D
1F
0E
1P
1_
0B
1@
0A
0,
0+
1*
#216000
0!
07
0O
#216500
1!
17
1O
1m
1D
0P
1Q
0_
1B
1,
#217000
0!
07
0O
#217500
1!
17
1O
1l
0m
0D
1E
1P
0B
1A
0,
1+
#218000
0!
07
0O
#218500
1!
17
1O
1m
1D
0P
0Q
0R
1S
1B
1,
#219000
0!
07
0O
#219500
1!
17
1O
0l
0k
1j
0m
0D
1G
0F
0E
1P
1_
0B
1?
0@
0A
0,
0+
0*
1)
#220000
0!
07
0O
#220500
1!
17
1O
1m
1D
0P
1Q
0_
1B
1,
#221000
0!
07
0O
#221500
1!
17
1O
1l
0m
0D
1E
1P
0B
1A
0,
1+
#222000
0!
07
0O
#222500
1!
17
1O
1m
1D
0P
0Q
1R
1B
1,
#223000
0!
07
0O
#223500
1!
17
1O
0l
1k
0m
0D
1F
0E
1P
1_
0B
1@
0A
0,
0+
1*
#224000
0!
07
0O
#224500
1!
17
1O
1m
1D
0P
1Q
0_
1B
1,
#225000
0!
07
0O
#225500
1!
17
1O
1l
0m
0D
1E
1P
0B
1A
0,
1+
#226000
0!
07
0O
#226500
1!
17
1O
1m
1D
0P
0Q
0R
0S
1T
1B
1U
1,
#227000
0!
07
0O
#227500
1!
17
1O
0l
0k
0j
1i
0m
0D
1H
0G
0F
0E
1P
0U
1V
0T
1_
0B
1>
0?
0@
0A
1U
0V
0,
0+
0*
0)
1(
#228000
0!
07
0O
#228500
1!
17
1O
1m
1D
0P
1Q
0_
1B
1,
#229000
0!
07
0O
#229500
1!
17
1O
1l
0m
0D
1E
1P
0B
1A
0,
1+
#230000
0!
07
0O
#230500
1!
17
1O
1m
1D
0P
0Q
1R
1B
1,
#231000
0!
07
0O
#231500
1!
17
1O
0l
1k
0m
0D
1F
0E
1P
1_
0B
1@
0A
0,
0+
1*
#232000
0!
07
0O
#232500
1!
17
1O
1m
1D
0P
1Q
0_
1B
1,
#233000
0!
07
0O
#233500
1!
17
1O
1l
0m
0D
1E
1P
0B
1A
0,
1+
#234000
0!
07
0O
#234500
1!
17
1O
1m
1D
0P
0Q
0R
1S
1B
1,
#235000
0!
07
0O
#235500
1!
17
1O
0l
0k
1j
0m
0D
1G
0F
0E
1P
1_
0B
1?
0@
0A
0,
0+
0*
1)
#236000
0!
07
0O
